"    7","A.C.I.                                    "
" 1226","A.C.I. - CASTENASO                        "
"  386","A.G. TIPOGRAFIA                           "
"    4","A.I.M.A.                                  "
"  942","A.I.S.A. FERRETTI MARCO                   "
"  197","A.M.G.A. CASSANELLI                       "
"  236","A.N.T. BOLOGNA                            "
"    5","A.P.C.A.                                  "
" 1145","A.P.E. servizio ISTAT 051 239550          "
"  117","A.S.A.M. MACELLO PUBBLICO                 "
" 1098","A.T.P. CARR. BELTRAMI                     "
" 1538","ABATE SALVATORE                           "
" 1710","ABATI                            IMPASTO  "
" 1163","ABBATITORE TEMP. NAVELLI IMPIANTI         "
"  895","ACCADEMIA DEI NOTTURNI                    "
" 1492","ACETAIA ESTENSE                           "
" 1423","ACETAIA MALPIGHI                          "
"  698","ACOSER GEOM. SPIGA                        "
"  303","AERMEC ASSISTENZA                         "
" 1484","AFFILA COLTELLI-ORLANDINI ERMES (MADO)    "
" 1817","AGOSTINO STANCARI                         "
"    9","AGRESTINI DOTT.                           "
" 1056","AGRITURISMO CA BIANCA                     "
"  728","AGRITURISMO IL MURELLO - SIG.RA VALERIA   "
" 1562","AGRITURISMO S.MARIA DI BAGNAROLA          "
" 1818","AIA (BERTI STEFANO)                       "
"  644","AIA SEDE S.MARTINOBUON ALBERGO VR.        "
"   45","AIREX cartelli pubblicitari               "
" 1575","AIRONE AGRITURISMO SIG. SPIGA             "
" 1191","ALBERGHINI ANGELO                         "
"   13","ALBERTAZZI                                "
" 1433","ALBERTINI FORNO                           "
"   14","ALCAR SIG.RA WANDA                        "
"  624","ALCISA SIG. RAUL VACCHI                   "
" 1601","ALCISA S.p.A.                             "
" 1790","ALESSANDRO FIORENZO (OSTERIA SPQR)        "
" 1073","ALFACOD (sig.PASCALE 348 6907662)         "
"  965","ALFACOD SIG. CULCASI (COLLIVA x softw)    "
"  908","ALFACOD SIG. MACCAFERRI                   "
"   17","ALIMENTARI SCHIASSI                       "
" 1550","ALIMENTARI 2000                           "
" 1442","ALLARME SECURNOVA Gentilini 335 5496304   "
" 1237","ALLIBERT SIG GARRIPOLI                    "
" 1294","ALLY SACCHETTI BIDONI BIANCHI             "
"  725","ALPINO CARNI ORA PIERANTONI               "
"    1","ALSENESE SALUMIFICIO                      "
" 1347","ALTOBEL FABIO 3405888123                  "
" 1474","ALVERNIA DANIELA                          "
"    6","ALVES                                     "
" 1305","ALVES BAR (337-581688) cucina 051767978   "
"  215","ALVES MAX                                 "
"  970","ALVES RISTORANTE                          "
" 1703","ALVESFOOD                                 "
" 1664","AMADORI x contestazione prezzi            "
" 1136","AMADORI (responsabile prezzi sig. LEONI   "
" 1604","AMADORI GESCO                             "
"  312","AMADORI GESCO - SIG. MASSIMILIANO         "
"  210","AMADORI GESCO - SIG. MIRKO GRIMALDI       "
" 1026","AMADUZZI SERENA                           "
" 1441","AMERIGO (FABRIZIO ZIVIERI rappr.)         "
" 1185","AMMINISTRATORE STANZANI GIANNI            "
"   23","ANCESCHI                                  "
"  905","ANDREA FRUTTA                             "
"  910","ANGELO CARANI                             "
" 1424","ANSELMI ALESSANDRO edil2002 051 6508075   "
"   79","ANTICA FOMA                               "
"  368","ANTICA FOMA SIG. STEFANO                  "
"  225","ANTICA SALUMERIA BARGELLINO               "
" 1849","ANTICA TRATTORIA LOVOLETO                 "
" 1253","ANTOMAS MASSIMO                           "
" 1254","ANTOMAS ANTONELLA                         "
" 1369","ANTONELLO                                 "
"  705","ANTONIA STUDIO CHAMBERS                   "
" 1017","ANTONUCCI ROBERTO                         "
"  776","APE ASS,PROPRIETARI CASE                  "
" 1224","APRICENTER snc Mazzacurati Fabio          "
"  294","APRILIA CENTER BOLOGNA                    "
" 1304","ARCA                                      "
"   25","ARCANGELI FABIO                           "
"   27","ARCETANO                                  "
"  704","ARETINA FUNGHI                            "
"  328","ARLOTTI FONTANIERE VAPORE                 "
" 1243","ARMAROLI PIEVE BUDRIO                     "
" 1565","ARNEG Bubbola/Marcadella                  "
"   30","ARROTINO LANZI MARTINO                    "
" 1093","ARROTINO TANCINI                          "
" 1608","ARTIC                                     "
" 1605","ARTIGIANA FUNGHI                          "
" 1421","ARTIGIANCASSA DOTT.TASINI366 6601924      "
"  270","ARU NASTRI SEGAOSSA                       "
" 1822","AS.CA DE MARIA MASSIMILIANO               "
" 1783","AS.CA SURGELATI VILLANOVA                 "
" 1395","ASER BOLOGNA - Domenichini *****NO*****   "
" 1225","ASER OMEGA Alessio 335 7502637            "
" 1743","ASER TECNICO FABIO                        "
" 1344","ASFALTI DIAMANTI (asfalto piazzali,strad  "
"  208","ASILO NIDO QUARTO                         "
" 1440","ASSO DI FIORI (FIORAIO GRANAROLO)         "
" 1506","ATTI SPA SIG.LELLI                        "
" 1401","AUB (uff. contabilit… sig.ra Arianna      "
" 1588","AURORA (osteria dei galli-festa UVA)      "
"   36","AUTOCAR                                   "
"  812","AUTODEMOLIZIONI MENGOLI STEFANO           "
" 1382","AUTOMERCANTILE                            "
" 1036","AUTOMERCANTILE S. LUCA                    "
"   37","AUTOSALONE GUERZONI                       "
"   38","AUTOSOCCORSO MAZZONI                      "
"   39","AUTOTRASPORTI FORTINI WALTER              "
"  375","AUTOTRASPORTI MUSOLESI                    "
"  694","AUTOTRASPORTI PORPORA CONSIGLIATO CLAI    "
" 1858","AZZOLINI                                  "
"  403","B&B MORTADELLE                            "
"  413","B.M.B LAVORAZIONE LAMIERA VILLANOVA       "
" 1010","BA-MA PASTICCERIA BABA                    "
" 1120","BABBI                                     "
" 1407","BABBI (rappr.sig. SILVESTRI)              "
"  724","BACCHILEGA ROBERTO                        "
" 1586","BACCI                                     "
" 1208","BACCOLINI                        IMPASTO  "
" 1681","BACILIERI                        IMPASTO  "
" 1207","BACILIERI DANIELE                         "
" 1300","BACILIERI DANIELE LA CLEMENTINA           "
" 1418","BADIALI DOTT.SSA FEDERICA                 "
"  708","BAGNO ANTONELLA LIDO CLASSE               "
" 1072","BAGNOLI ANDREA - IMBIANCHINO              "
"  769","BAGNOLI BEATRICE                          "
"   44","BAIT & BORGHI (PAOLO BAIT)                "
"  108","BALDASSARRE LORENZO                       "
" 1322","BALDI DANIELA VIGILESSA                   "
" 1798","BALDISSARA FRANCO                         "
" 1261","BALESTRA DEA GESTIONI                     "
" 1507","BALLINI NICOLETTA (MAMMA GIULIO)          "
" 1785","BANCA BNL DIR. VECCHIATINI ag.6 bo        "
" 1786","BANCA BNL gestore TUCCELLA                "
" 1443","BANCA CASSA RISPARMIO Ag.Granarolo E.     "
"   42","BANCA CASSA RISPARMIO BO. ag.Quarto       "
" 1014","BANCA CR.COOP.(servizio home banking)     "
" 1233","BANCA CR.COOP.DI CAST.ag.Cadriano Toschi  "
" 1598","BANCA CR.COOP.DI CASTENASO ag.Cadriano    "
"  713","BANCA DI BOLOGNA GRANAROLO                "
" 1502","BANCA DI BOLOGNA OSTERIA GRANDE           "
" 1813","BANCA di BOLOGNA                          "
" 1274","BANCA di BOLOGNA ag.Granarolo             "
" 1767","BANCA POPOLARE EMILIA ag.Quarto           "
" 1497","BANZI GABRIELE                            "
"  140","BAR ALVES                                 "
" 1495","BAR JOLLI GUIDI FABIANO 333 7660469 BAR   "
" 1863","BAR JOLLI GUIDI FABIANO 333 7660469 CASA  "
" 1339","BAR PINO                                  "
"  720","BAR PRINCE (PASQUALI ROBERTO)             "
"  396","BAR ROSSO BLU                             "
"   53","BAR SPORT DI CASTENASO                    "
"  467","BAR STELLINA*BAR ALL'ANGOLO DAL 2006 I'M  "
"  717","BARALDI                                   "
"  324","BARBIERE TONINI GIANNI                    "
"  900","BARBIERE IVO                              "
"   56","BARBIERI                                  "
"   57","BARBIERI F.LLI                            "
" 1665","BARBIERI MARIO - CAVAZZONA X VINI         "
"   21","BARBIERI MARIO - PIUMAZZO X VINI          "
" 1397","BARBONI SIG.RA FIORENTINE GROSSE          "
"  723","BARDINI F.LLI                             "
"   58","BARICORDI DITTA S.I.P.A.                  "
" 1371","BARICORDI (SIPA X SPORTINE)               "
" 1162","BARONI FRANCO (LAVORAZIONE PROSC.BARONI   "
" 1839","BARTOLINI PATRIZIA                        "
"   59","BASSI LEDO                                "
" 1556","BASSI CARLO                               "
"  972","BASTELLI                                  "
" 1678","BASTELLI                         IMPASTO  "
"  782","BATAGODA HASTIKA                          "
" 1256","BATTILANA ARRIGO (AUTOTRASPORTO ANIMALI)  "
" 1244","BAVUTTI AGOSTINO FESTA DS GRANAROLO       "
"   61","BAZZANI                                   "
"   62","BEDANI CARLO                              "
"   63","BEDESCHI MARIO                            "
" 1834","BEDOSTI MAURIZIO                          "
" 1126","BEEF                                      "
"  935","BEEF SIG. CARLO BERNARDI                  "
"   64","BELLENTANI                                "
"   68","BELLUCCI                                  "
" 1781","BENEDETTI arch. ALBERTO                   "
"   70","BENFENATI ANGELO                          "
" 1123","BENITO                                    "
"   72","BENITO CASA DEL POPOLO                    "
"  830","BENITO GARUTI                             "
"  457","BENITO CASA del POPOLO                    "
"   75","BERGAMINI                                 "
"   76","BERGAMINI BI-PLAST                        "
"  924","BERGO CARLETTO                            "
"   77","BERSELLI (NASTRI NATALE)                  "
"   78","BERSELLI FRANCA                           "
"  173","BERTACCINI CLAUDIO Granarolo              "
"  341","BERTOLI FESTA PD DOZZA                    "
" 1312","BERTOLINI DIVIS.CHIMICA SPA               "
" 1614","BERTONCELLI                               "
"  969","BGP BELLEI & PALAZZI                      "
"  545","BI-PLAST BERGAMINI                        "
" 1241","BIANCHI GIULIANO frigoimpianti            "
"  287","BIANCHI MASSIMO                           "
" 1104","BIANCHINI LUCIANO (congelato) Sig.PAOLO   "
" 1679","BIANCONI (PADRE DOTT.SA)         IMPASTO  "
" 1750","BIEMME HOTEL (UFF. X PAGAMENTI)           "
"  161","BIGHELLINI MASSIMILIANO                   "
"  397","BIGNAMI                                   "
"   52","BIGNAMI - DS SAN DONATO                   "
"   49","BILLI EZIO                                "
" 1784","BISOGNIN EDOARDO (figlio di Fernando)     "
"   22","BISOGNIN FERNANDO                         "
"  727","BISOGNIN FERNANDO entro le 8.00           "
" 1663","BISOGNIN TERESA                           "
"   74","BISOTTI ENZO 0348 2609285                 "
"   71","BOEMIA CRISTAL                            "
"  901","BOLELLI BRUNO                             "
" 1715","BOLELLI VALERIO                           "
"  742","BOLOGNA CAR                               "
" 1372","BOLOGNA CAR (DAL 2006 GLOBAL SERVICE)     "
" 1348","BOLOGNA MOTORI (SIG. GARDOSI MAURIZIO)    "
"  504","BOLOGNA-ORTOFRUTTA (MAGAZZINO 328420)     "
" 1670","BOLOGNESI                        IMPASTO  "
"  984","BOLZONI GIULIANO                          "
"  711","BONACCORSI ETTORE FORMA                   "
"  709","BONACCORSI IVANA (Ristorante MAURO )      "
" 1066","BONAVERI AVVOCATO GRANAROLO               "
" 1738","BONAVERI AVVOCATO LEANDRO CELL            "
" 1838","BONAVERI FIGLIO DI SERGIO                 "
" 1323","BONAVERI ROMANO FESTA PDS DUE MADONNE     "
"   29","BONAVERI SERGIO                           "
" 1515","BONAZZI MORENO (Tecnesa spa 051 6013111)  "
"  710","BONAZZI SERRANDE                          "
" 1676","BONETTI                          IMPASTO  "
"  113","BONFIGLIOLI U B                           "
"  378","BONFIGLIOLI LUCIANO                       "
"  771","BONFIGLIOLI PAOLO (DataFlex)              "
" 1671","BONINSEGNA                       IMPASTO  "
" 1760","BONOMETTI CARNI                           "
"   89","BONORA                                    "
" 1410","BONORA GIULIANO                           "
" 1384","BONVICINI ANDREA                          "
" 1022","BONVICINI ANDREA 760463 CASA              "
" 1458","BONVICINI GIAN LUCA fax                   "
" 1630","BONVICINI GIAN LUCA casa 051 6056316      "
"  674","BONVICINI GIOVANNA                        "
"  395","BONVICINI GIULIA 051 760487               "
"  700","BONVICINI MICHELE                         "
"  334","BONVICINI MICHELE 335 7401226             "
" 1794","BORGHESI MAX                              "
"   90","BORGHI (FESTA S. MARTINO)                 "
" 1616","BORGHI geom. MAURO (335 6005989)          "
" 1089","BORGO ANTICO PROSCIUTTI EX DIANA          "
"  104","BORSARI                                   "
" 1875","BORSARI MARIO (Toshiba)                   "
"  985","BORSATO FLORIANO                          "
"  393","BORTOLI                                   "
"  422","BORUZZI ERMANNO RAPPR.FERRARINI           "
"  105","BOSCHI GIOVANNI ANTONIO FABBRO            "
"   32","BOUTIQUE DEL TORTELLINO SIG.ANTONIO       "
" 1452","BOVE (CARTA DA PARATI)                    "
"  100","BOVINI ING. ENZO                          "
" 1391","BOVINI SARA                               "
"  112","BRANCHI                                   "
"  714","BREVIGLIERI                               "
"  114","BRIGHENTI GIANCARLO                       "
"  560","BRIGHENTI RITA                            "
"  854","BRIGHENTI MARIA ROSA                      "
" 1124","BRIGHENTI MARIA ROSA FABIO                "
" 1084","BRIGHENTI ZIA MARIA                       "
" 1161","BRIGHENTI BARBARA                         "
"  116","BRIGHETTI CAV. GIUSEPPE                   "
"  978","BRIGHETTI MARINA                          "
"  953","BRIGOTTI PAOLO                            "
" 1680","BRINA                            IMPASTO  "
" 1309","BRINI DOTT. VETERINARIO                   "
" 1709","BROCCOLI                         IMPASTO  "
"  719","BROCCOLI PROF.                            "
" 1674","BRUNELLO                         IMPASTO  "
"  584","BRUSA CHIARA                              "
" 1843","BUFFETTI (PONTI GUIDO-MARZIA)             "
"  174","BURIANI GIOVANNI                          "
" 1514","BURZI GIANCARLO                           "
" 1280","C.A.F. FACCHINI GRANAROLO                 "
"  934","C.C.S. BORGO TOSSIGNANO-BO-               "
" 1662","C.E.A ESTINTORI                           "
" 1832","C.E.A ESTINTORI commerciale               "
"  121","C.G.F. ETICHETTE                          "
"  122","C.G.F. SIG. BORGATI                       "
"  740","C.G.M. PREZZATRICE CON.OR.                "
"  695","C.L.A.I.                                  "
"   19","C.L.A.I. IMOLA                            "
" 1125","C.N.A.                                    "
"  126","C.N.A. SIG. RONCAGLIA                     "
"  207","C.N.A. SIG.RA SILVANA                     "
"  128","C.N.A. BOLZON SEZ. AMBIENTE               "
"  123","C.N.A. REGIONALE                          "
" 1782","C.N.A. ROSSI MARISA SERFINA               "
"  124","C.N.A. VIA A. MORO                        "
"  753","C.T.C. SIG. GAMBERINI                     "
" 1461","CA DE MANDORLI                            "
" 1460","CA DE MANDORLI SIG.RA ANNA FANTONI        "
"  712","CA DE MANDORLI CUOCA                      "
"  749","CA' BIANCA CUOCO                          "
"  571","CABER Sig.DUILIO                          "
" 1291","CABER S.R.L.                              "
" 1677","CALANCA                          IMPASTO  "
"  130","CALDAIA MAIALI I B                        "
"  133","CALIGOLA MARIA                            "
" 1248","CALZATI PAOLO                             "
"  134","CAMERA DI COMMERCIO BOLOGNA               "
" 1675","CAMPAGNA VITO                    IMPASTO  "
"  765","CAMPINI MARINA                            "
" 1154","CAMPINI TAMARA                            "
"  411","CAMURATI WALTER                           "
"  132","CANCELLO AUTOMATICO ASS. FABIO            "
"  930","CANCELLO AUTOMATICO ASS. VITALI PIETRO    "
" 1318","CANE' FEDERICO                            "
"  137","CANNAMELA                                 "
"  138","CANOSSA PROSCIUTTIFICIO                   "
"  374","CANOVA ALESSANDRO                         "
"  141","CANTARONI GEOMETRA EDILTER                "
"  142","CANTELLI SPA                              "
"  774","CANTINA ARGELATO                          "
" 1686","CAPPELLETTI                      IMPASTO  "
"  119","CAPPELLI CORRADO                          "
" 1037","CAPUCCI PAOLO Bologna-Ortofrutta          "
"   55","CARAB. BALDASSARRE LORENZO                "
"  143","CARABINIERI GRANAROLO                     "
"  144","CARABINIERI MINERBIO                      "
" 1307","CARABINIERI MEDICINA (x negozio)          "
"  145","CARBONE LOVOLETO                          "
"  739","CARBOX                                    "
"  146","CARBURATORISTA LANDINI                    "
" 1437","CARIM SIG. STEFANO PORCHETTE              "
" 1082","CARIM IL MAIALINO PORCHETTE               "
" 1744","CARINI dott. GIANCARLO                    "
" 1000","CARISI IRENE                              "
"  147","CARLESSO CARLETTO                         "
" 1690","CARLETTI                         IMPASTO  "
" 1011","CARLETTI (329 2157848)                    "
" 1030","CARLO ALBERTO - LEDA TROMBETTI            "
" 1689","CARLONI                          IMPASTO  "
"  944","CARMINE MORENA                            "
"  752","CARNEMILIA                                "
"  759","CARNEVALE VEDRANA SIG. DRAGHETTTI FRANCO  "
"  129","CARNI PADANE DISOSSO PROSCIUTTI           "
"  148","CARRETTA                                  "
"  149","CARROZZERIA GIANPAOLO                     "
"  150","CARROZZERIA GIULIO                        "
"  103","CARROZZERIA VILLANOVA                     "
"  322","CARRUBA                                   "
" 1273","CARTAFORNITURE                            "
" 1486","CARTAFORNITURE sig.GIANNI                 "
" 1285","CARTAFORNITURE sig. ENEA                  "
"  311","CARTARIA BOLOGNESE                        "
" 1321","CARTINCA fornitore cancell. CHIUSO        "
"  153","CASA BAR MENGOLI                          "
"  744","CASA DI RIPOSO G. DAMIANI                 "
" 1171","CASA DI RIPOSO GRANAROLO DIRETTORE        "
"  743","CASARI GEOMETRA                           "
"  729","CASCINABOSCO                              "
"  415","CASCONE FRANCESCO                         "
"  875","CASEIFICIO SAMOGGIA                       "
" 1683","CASELLA - CASTENASO              IMPASTO  "
"  778","CASELLA STEFANO                           "
"  154","CASELLI                                   "
" 1685","CASELLI                          IMPASTO  "
"  155","CASELLI CICCIOLI                          "
"  111","CASELLI (x bestiame) Pieve di Cento       "
"   28","CASOLARI MAG. DS FESTA PROV. 2005         "
"  157","CASONI PROSCIUTTI                         "
"  260","CASTAGNI                                  "
"  431","CASTALDINI (SCARABELLI OLGA)              "
" 1595","CASTALDINI GIORGIO - VOLONTARIATO GRANAR  "
"  608","CASTALDINI GUERINO                        "
" 1247","CASTALDINI MARIA ROSSI                    "
"  981","CASTEL PELLI                              "
"  159","CASTELLARI (FIAT)                         "
"  606","CASTELLARI CLIENTE MAGAZZINO CARNI        "
" 1478","CASTELLI ITERSANITER CER ENERGIA          "
" 1400","CATALDO                                   "
"  469","CATTIN                                    "
" 1032","CAVALIERE                                 "
"  734","CAVALIERI                                 "
"  163","CAVALIERI SPA CORRIERE                    "
" 1846","CAVALLINI ROMEO                           "
"  166","CAVANI F.LLI                              "
"  168","CAVAZZA                                   "
"  167","CAVAZZA (BELLENTANI)                      "
" 1217","CAVAZZA CARLO                             "
" 1229","CAVAZZA CARLO cell.                       "
"  762","CAVICCHIOLI FABIO                         "
" 1881","CAVICCHIOLI IVAN automazione porte neg.   "
" 1810","CAVINA RISTORANTE BARICELLA               "
" 1034","CECCHINI - paranchi DONATI                "
"  399","CENACCHI LUIGI (PONTI)                    "
"  738","CENTRAL                                   "
"  169","CENTRO ANZIANI CASTELMAGGIORE             "
" 1087","CENTRO CARNI MEDICINA                     "
"  184","CENTRO LATTE                              "
" 1216","CENTRO SOC.IL ROSETO GRANAROLO            "
" 1801","CENTRO SOC.L'AIRONE ( X RITIRO MERCE)     "
" 1764","CENTRO SOCIALE ANZIANI ARGELATO           "
" 1097","CENTRO SOCIALE ANZIANI PILASTRO           "
" 1642","CENTRO SOCIALE QUARTO FRANCO MONTANARI    "
" 1153","CENTRO SOCIALE QUARTO INF                 "
"   86","CENTRO SOCIALE QUARTO MARISA ARMAROLI     "
" 1771","CENTRO SOCIALE VILLANOVA                  "
"  748","CEPICO VILLANOVA                          "
"  732","CEPRA (DOTT. MORTERA)                     "
" 1861","CER CASTELLI                              "
" 1862","CER NALDONI                               "
" 1001","CERQUETANI GIORGIO                        "
" 1553","CERVELLATI FRANCO giornalista             "
" 1537","CESARE                                    "
" 1688","CESARI                           IMPASTO  "
" 1377","CESARI ANDREA                             "
" 1558","CESARI MARIO                              "
" 1855","CEVENINI ARRIGO (QUARTO INF.)             "
"  605","CEVOLANI - FARISELLI 0336 551300          "
"  635","CEZOO                                     "
" 1249","CEZOO     0546/646411                     "
" 1389","CEZOO DE BATTISTI AGOSTINO FAENZA         "
"  498","CHANDANA ANGODA                           "
"  996","CHECCHI                                   "
" 1101","CHENDI SERGIO ARGENTA -FE-                "
"  172","CHIASTRA & MELLI                          "
"  998","CHILI GIULIANO 348-2661550                "
" 1821","CHILI IMELDE                              "
" 1571","CHILI PIERO TRASPORTO MUCCHE              "
" 1508","CHIUSOLI CAMILLA NOTAIO VIA FALCONE2      "
" 1829","CHIUSOLI NOTAIO                           "
"  660","CHRISTIAN SASSATELLI                      "
"  175","CIAM                                      "
" 1617","CIANDENA                                  "
" 1618","CIANDENA 02                               "
"  763","CIBO                                      "
" 1394","CIBO SIG.ORAZIO SCALETTA                  "
" 1306","CIBO-CASH                                 "
" 1015","CIBO-CEDIS                                "
" 1004","CIM COOP.SOLIDARIETA' SRL                 "
" 1568","CINELLI MASSIMILIANO                      "
" 1569","CINELLI MAX                               "
" 1684","CIONI                            IMPASTO  "
" 1761","CIPRESSI                                  "
" 1851","CIRCOLO AIRONE CASTENASO SIG. GALLETTI    "
" 1283","CIRCOLO ARCI SIRENELLA SIG.RA ONEGLIA     "
"  176","CIRCOLO DELLA CACCIA                      "
" 1543","CIRCOLO GUERNELLI                         "
" 1467","CIRCOLO GUERNELLI SIG. ROCCA              "
"  745","CISE                                      "
" 1258","CLAI                                      "
" 1748","CLAI AGOSTINO                             "
" 1419","CLAI AGOSTINO IMOLA                       "
" 1496","CLAI (Faenza)                             "
" 1648","CLAI (Faenza) (Marco x diff. prezzi)      "
" 1155","CLAI (fatturazione)                       "
" 1144","CLAI (MARCO) x pollame                    "
" 1564","CLAI DANIELE FAENZA                       "
" 1831","CLAI DE BATTISTI                          "
" 1121","CLAI DE BATTISTI AGOSTINO FAENZA          "
"  991","CLAUDIANELLA SIG.MAURIZIO                 "
"  755","CLIMATIZ.AERMEC(ASSIST.LONGO MAURIZIO)    "
" 1510","CO.BE.CA - agnelli-SIG. LUCA 3287579801   "
"  398","CO.TA.BO. CIRCOLO ARCI                    "
"  177","COALS FAUSTO                              "
"  412","COL-FRIGO (impianti frigoriferi)          "
"  652","COLLOCAMENTO MINERBIO                     "
"  691","COLONNELLI CRISTINA 347 1548400           "
" 1682","COLTELLI MARCO                   IMPASTO  "
"  716","COMEF                                     "
"  179","COMMERCIALE TRASMISSIONI                  "
"  181","COMMERCIANTI                              "
"  182","COMPRESSORI LIPPI                         "
"  551","COMPREUR SRL                              "
"  355","COMPREUR SRL SIG. LEOTTA                  "
"  186","COMUNE BUDRIO                             "
"  190","COMUNE CASTELMAGGIORE                     "
"  189","COMUNE CASTELMAGGIORE CUCINA              "
"  983","COMUNE GRANAROLO                          "
" 1574","COMUNE GRANAROLO Roberta Candi (URP)      "
" 1857","COMUNE GRANAROLO Vandelli (SUAP)          "
"  885","COMUNE GRANAROLO CASA ALBERGO             "
" 1409","COMUNE GRANAROLO POLIZIA MUNICIPALE       "
"  682","COMUNE GRANAROLO SABRINA SEGR.SINDACO     "
"  256","COMUNE GRANAROLO segr.SINDACO             "
" 1555","COMUNE GRANAROLO uff.Commercio            "
" 1480","COMUNE GRANAROLO uff.Tec. (Gentilini)     "
" 1554","COMUNE GRANAROLO uff.Tecnico              "
" 1236","COMUNE MINERBIO                           "
"  916","CONAD VILLLANOVA SIG. BURZI               "
" 1146","CONDIZIONATORI (ASSISTENZA MAG IMPIANTI   "
" 1393","CONOR                                     "
"  192","CONSORZIO AGRARIO GRANAROLO               "
"  193","CONSORZIO PROSCIUTTIPARMA                 "
"  196","CONSULENZA RAG. LANDUZZI                  "
" 1276","COOP CARTAI                               "
"  199","COOP MOLINELLA MASSARENTI                 "
"  613","COOPCOSTRUZIONI Bertocchi                 "
"  758","COPPINI GIORGIO                           "
"  200","COPRAL SIG. LUSUARDI                      "
"  201","CORAZZA                                   "
"  300","CORNI                                     "
"  946","CORSINI DI DAMIANI & SANT.                "
"  675","CORTESE                                   "
"  480","CORTICELLI VALTER                         "
" 1879","COSEPURI SIG.IGNAZIO(AUTISTA) CELL.       "
" 1878","COSEPURI X CONSEGNE OSTER.BOTTEGA         "
"  733","COTABO                                    "
"  731","COTTI FRANCO                              "
"  988","COZZANI PAOLO                             "
"  416","CREDITO ROMAGNOLO GRANAROLO               "
" 1756","CREMONINI GISELLA                         "
"  994","CRICCA                                    "
"  320","CRISTIANI cliente                         "
"  945","CRISTINA                                  "
" 1246","CROCE' MAURA                              "
" 1200","CUCCA - RIMAC                             "
"  309","CUCINE IL CAVALIERE SIG.ARIELE            "
"    8","CULATELLI CACCIALI                        "
"  982","CULATELLI SAL. MORBARIGAZZI               "
"  757","CULATELLI SAL.GILIOLI E FERRARI           "
"   54","CULATELLI SIG. LUCCHI LORIS               "
"  388","CULLIGAN                                  "
" 1481","CUMANI ANDREA                             "
"  642","CUMANI-TUGNOLI                            "
" 1840","CUP -prenotaz.esami e corsi alimentarist  "
"  865","D'ACCARDI FRANCESCO                       "
" 1691","D'ALESSANDRO                     IMPASTO  "
" 1802","DA ZIA ALLARI (ARIANNA)                   "
"  979","DA ZIA ALLARI ROBERTO ROMANI              "
"  211","DAL FIUME                                 "
" 1501","DAL FIUME ALBERICI R.FABBRI FABIO         "
"  859","DAL GIUDICE - PICCOLO COW BOY             "
"  212","DAL POZZO LUIGI                           "
"  204","DAL RIO DITTA CEMM 335484028              "
"  951","DALL'AGLIO MARCHI SALUMIFICIO             "
" 1755","DALL'OSSO                        IMPASTO  "
"  407","DALLA ROVERE DIEGO                        "
"  408","DAMA (MAGAGNI)                            "
" 1292","DANIELLI DOTT. FILIPPO                    "
"  767","DAWN MR. BRIAN                            "
" 1212","DE FELICE REMO                            "
" 1352","DE FEZZA                                  "
" 1534","DE FEZZA UFF. 051 6560811                 "
"  357","DE FRANCESCHI DANILO                      "
" 1325","DE LITTERIS LUIGI                         "
" 1820","DE MARIA MASSIMILIANO - AS.CA             "
" 1420","DE ROSA DOTT. AMBULATORIO                 "
"  703","DE ROSA DOTT. APPUNTAMENTI                "
" 1262","DEA GESTIONI SIG. BALESTRA                "
" 1264","DEA GESTIONI RIST, SAN MARINO             "
"   97","DEL MONACO SIG.PAGLIARO vendita agnelli   "
"  828","DELLA PORTA Maurizio                      "
" 1516","DEN - MACELLERIA LAMARSA                  "
"  265","DEODATA EDICOLA ABBIGLIAMENTO             "
"  217","DEPILATRICE                               "
" 1654","DESERTI - FRIGORISTA COLLABORATORE        "
"  203","DESERTI MARCO cell. 348 3617215           "
"  218","DESERTI mare 0533-39254 suocera 811431    "
"  507","DESSI' GEOM.ANTONIO 335 6172233           "
"  505","DI GIANSANTE ANGELO                       "
"   88","DI NATALE MASSIMO                         "
"  992","DIDOSSATORE FILIPPO                       "
"  226","DIEGOLI                                   "
" 1866","DIEGOLI DOTT. GIUSEPPE                    "
" 1270","DIFURIA ANTONIO                           "
" 1581","DINI (Bombo) (Enel)                       "
"  227","DIOLAITI                                  "
" 1488","DISOSSATORE (FRANCHINI PAOLO)             "
" 1134","DISOSSATORE MARIO CARLINI                 "
"  756","DISOSSO ARCA                              "
"  471","DISOSSO GOLINELLI ROMANO CARNI PADANE     "
" 1109","DISOSSO GS GIANNI SCHIERI                 "
"  409","DISOSSO TODESCHINI FERRUCCIO              "
"  214","DISOSSO TODESCHINI PAOLO                  "
"  764","DOMENICO CIVITA                           "
" 1272","DOMENICO PARRUCCHIERE (CAPRETTO)          "
"  766","DOMUS CAR                                 "
" 1219","DON MASSIMO                               "
"  383","DON MASSIMO RUGGIANI                      "
"  843","DONATA PARR.S.RITA                        "
" 1118","DONATI paranchi - ditta CECCHINI          "
" 1275","DONATI paranchi - ditta MOLPAS S.Giovann  "
"  228","DONDI SAURO                               "
"  229","DONDINI                                   "
" 1778","DOTTINI ELETTROGAMMA 051713086            "
" 1639","DRAGON - ADRIANO                          "
" 1638","DRAGON PUB (X FATT. THE JULIAN)           "
" 1645","DRAGON PUB - FEDERICO                     "
" 1529","DRAGON-LUCA                               "
"  230","DRUSIANI                                  "
" 1477","DS FESTA DUE MADONNE BELLETTI             "
" 1475","DS FESTA PROVINCIALE RIST. GALLO          "
"  231","DUILIO MIGLIANTI AL. SCHIASSI             "
" 1770","E'COSI' DETERGENTI CLAUDIO BUZZOLA        "
" 1360","E.M.L. DOTT. BUDRI                        "
" 1230","ECCHIA ONEGLIA - CIRC.SIRENELLA           "
" 1518","ECIPAR                                    "
"  234","EDIL OMNIA -KANGO-                        "
"  235","EDIL PLASTIC GEOM.CANALI                  "
"  237","EDILGAMMA                                 "
"  233","EDILSAS (CASELLI)                         "
"  238","EDILTER GEOM. CANTARONI                   "
"  239","EFFEAUTO                                  "
"  240","EFFEPI LAMIERE SIG. PAOLO                 "
" 1308","EFFEZETA SIG. ANDREA GUIDI                "
" 1189","EGIDIO GIANLUIGI                          "
"  421","ELETTRICISTA (MORENO)                     "
" 1176","ELETTRICISTA BALDISSARA FRANCO            "
" 1047","ELETTRICISTA MAURIZIO                     "
" 1779","ELETTROGAMMA                              "
" 1796","ELETTROGAMMA SIG. NERIO                   "
" 1795","ELETTROGAMMA SIG.DOTTINI                  "
"  479","ELETTROSHOP(CLIMA AERMEC-LONGO MAURIZIO)  "
" 1196","ELIDE                                     "
"  241","ELLEBI SIG. LANDINI                       "
" 1845","EMANUELA FRUTTA                           "
"   98","EMIGEL x ordinare:051 6641313             "
"  242","EMIL. PETROLI SIG. VANDELLI               "
"  243","EMILGAS                                   "
" 1628","EMILIANPRESS                              "
" 1268","EMILIMPIANTI                              "
"  869","EML DI BUDRI MIRANDOLA                    "
" 1535","EMMA SCAUNICH                             "
"  244","ENEL                                      "
"  246","ENEL SIG. ROMAGNOLI                       "
" 1453","ENOBIRRA (ENRICO CELL.)                   "
"  463","ENZO ZUCCATI                              "
"  770","ESAGONO IMMOBILIARE                       "
"  165","ESAGONO IMMOBILIARE  FAX                  "
"  248","ESATTORIA SANTI-CASTELM.                  "
"  249","ESTENSE SAL.                              "
" 1596","ESTRAGON COOP - CUOCO RIST. MATTEO        "
"  250","ETIKA SYSTEM SIG. GRADONE                 "
"  247","ETTORE BALBONI                            "
"  251","EURO EDILE                                "
" 1406","EUROCARNI - SIG.RA DONATELLA              "
"  252","EUROCART MONTANARI TIZIA                  "
" 1214","EUROCOLUMBUS LAMBERTINI 335 5767018       "
" 1138","EUROCOLUMBUS rappr. SIG. TOMITANO         "
"  253","EUROFIL SIG. TADDIA                       "
"  254","EUROGRAF                                  "
"  255","EUROPORK                                  "
" 1693","FABBRI MORENO                    IMPASTO  "
" 1859","FABBRI TECNICO VIGILI FUOCO               "
" 1133","FABI ALESSIO                              "
"  601","FABRIZIO CIONI NEG.EX SARTI-VIGNOLI       "
"  258","FACCHINI                                  "
"  426","FACCHINI & MENGOZZI (COMMERCIO CARNI)     "
"  779","FACCHINI RUGGERO                          "
" 1239","FAENZA CICLI CASTENASO SIG. PADRE         "
"  259","FAGGIOLI SIG. POLI                        "
"  344","FANTI MAURIZIO SUB. MACELLAIO             "
" 1194","FANTONI PAOLO FORNO CASTAGNOLINO          "
"  221","FANTONI PAOLO FORNO CASTAGNOLINO M.       "
" 1063","FARINA VITTORIO                           "
" 1059","FARISELLI DINO                            "
" 1573","FARMACIA GRANAROLO E.                     "
" 1572","FARMACIA QUARTO                           "
" 1643","FARNE'FRANCESCO PD CASTENASO(UNITA'2011)  "
"  261","FATTORI                                   "
" 1415","FEDERICI ENZO                             "
"  264","FELSINEO                                  "
" 1619","FERRANTI MORENA                           "
" 1088","FERRANTI MORENA SAN PIETRO IN CASALE      "
"  423","FERRARI                                   "
"  266","FERRARI REMO                              "
"  267","FERRARI RICCARDO                          "
" 1281","FERRARI IGOR                              "
"   69","FERRARI IGOR supermecato                  "
" 1353","FERRARI IVO (autista GINO 30/07/2012)     "
" 1482","FERRARI IVO (macello)                     "
" 1793","FERRARI LORIS                             "
"  871","FERRARI PROSC. LANGHIRANO                 "
"  899","FERRARI ROBERTO MARITO EMMA               "
"  232","FERRARINI (rapp. Sig. BORUZZI)            "
"  661","FERRARINI (rapp. Sig. Cantarelli)         "
" 1245","FERRARINI SIG. MATTEI GIANNI 06/2002      "
" 1620","FERRETTI MAMMA MATTEO                     "
" 1090","FERRETTI MARCO                            "
" 1804","FERRETTI MATTEO                           "
"  424","FESTA GRANAROLO                           "
"  400","FILANGERI                                 "
"  773","FILIPPI                                   "
" 1473","FILIPPINI AMEDEO MERCATALE ALL.MUCCHE     "
"  202","FILIPPO                                   "
"  288","FILOMARKET                                "
"  913","FINI ZARRI dott.GIULIO 335 7116269        "
"  107","FIOCCHI POL. SPRING                       "
" 1038","FIOR FIORE GELATERIA                      "
" 1388","FIOR FIORE GELATERIA MUZZI MAURIZIO       "
" 1317","FIORAVANTI (genero Michele 333 6932600)   "
"  269","FIORCARNI                                 "
" 1331","FIORENZUOLO LUIGI 337 645011              "
" 1286","FIORFIORE - CIBO                          "
" 1181","FIORFIORE - CIBO Orazio Scaletta          "
"  271","FIORI 3B                                  "
"  273","FIORINI                                   "
"  275","FIORINI S.R.L.                            "
"  274","FIORIS                                    "
" 1179","FIORUCCI SIG. LIVANI                      "
" 1065","FISH & FROG SIG. LUCA                     "
"  977","FONTANA & ANGHINETTI                      "
" 1142","FONTANA CALCIO AMICA CA' DE'FABBRI        "
" 1326","FORD AUTOFFICINA POGGI                    "
"  277","FORMICA ALBERTO                           "
"  881","FORMIGINESE CARNI FORMIGINE               "
" 1358","FORNAIO EX LONGHI FAUSTO                  "
"  502","FORNAIO GRANAROLO FRANCESCO               "
" 1436","FORNAIO NICOLA                            "
" 1271","FORNAIO PORCHETTE PAOLO FANTONI           "
" 1694","FORNI                            IMPASTO  "
" 1504","FORNO DE FELICE REMO                      "
"  784","FORNO QUARTO SPANAZZI                     "
" 1231","FORNO ROMANO                              "
"  280","FORTINI WALTER                            "
"  825","FORTINI GIANNI/ALLEVATORE AMICO SARTI LO  "
" 1775","FORTITUDO BASEBALL                        "
"   94","FOSCHI DOTT.                              "
"  281","FRA                                       "
"  282","FRABBONI                                  "
" 1742","FRAER LEASING sig. Ceccarelli             "
" 1739","FRAER LEASING UFF. IMMOBILIARE            "
" 1428","FRANCESCO FORNAIO                         "
"  928","FRANCESHINI                               "
" 1692","FRANCHI                          IMPASTO  "
"  284","FRANCHINI                                 "
" 1695","FRAZZOLI                         IMPASTO  "
" 1425","FRAZZONI IVANO                            "
"  684","FREGNI CARLO                              "
"  286","FRIGILINE NUOVA SEL                       "
"  366","FRIGOR BOX                                "
" 1094","FRIGORISTA GAMMA FRIGO                    "
" 1096","FRIGORISTA GAMMA FRIGO STEFANO            "
" 1095","FRIGORISTA GAMMA FRIGO GIULIANO           "
" 1206","FRIGORISTA IVAN                           "
"  802","FURLAN - ORTO CORI                        "
" 1147","G.A. DI ANGIULLI                          "
"  943","G.P.D. Sig.VISMARA                        "
" 1009","GABALDO                                   "
"  575","GABRIELLI LUIGI                           "
" 1060","GABUSI PIETRO                             "
"  964","GAETANO                                   "
" 1656","GAGLIANO ANGELO                           "
"  292","GAIANI MATTEO                             "
"  293","GAIBA GIANNI                              "
"  428","GAIDELLO CLUB RISTORANTE                  "
"  794","GALANTI                                   "
" 1485","GALLERANI FLAUDIO (disossatore)           "
"  987","GALLETTI ASFALTI GEOM. MEZZINI            "
"  816","GAMBERINI & FIGLI                         "
" 1114","GAMBERINI CLAUDIO                         "
"  790","GAMBERINI CLAUDIO CONAD                   "
" 1107","GAMBERINI GIANNINO                        "
"  382","GAMBERINI GIORGIO                         "
" 1150","GAMMA FRIGO                               "
" 1149","GAMMA FRIGO STEFANO NS. ASSISTENTE        "
" 1148","GAMMA FRIGO GIULIANO TITOLARE             "
"  909","GAMMA PACK                                "
" 1152","GAMMA PACK RAPPRESENTANTE CURTI           "
"  363","GAMS SIG.TONELLI ROMANO                   "
" 1057","GANDOLFI PAOLO                            "
"  538","GARAGNANI EVARISTO                        "
"  296","GARDINI AVV. IVAN                         "
"  297","GARUTI BENITO                             "
"  298","GARUTI UMBERTO                            "
" 1316","GARUTTI PIER LUIGI (pelli)                "
"  853","GASPARE                                   "
" 1696","GASPARETTO                       IMPASTO  "
" 1131","GASSER SIG. VENDITTI                      "
"  797","GATORADE CAMPIONI REMO                    "
"  796","GATORADE FRANCO GIUSEPPE                  "
" 1636","GATTI                                     "
"  299","GAZZETTA UFFICIALE                        "
"  893","GELATERIA FIOR FIORE                      "
" 1213","GENTILINI ALESSANDRO ALLARME MAG.CARNI    "
"   81","GENTILINI LUCA                            "
"  301","GESSI                                     "
"  475","GHEDAUTO                                  "
"  515","GHEDAUTO COLLAUDO                         "
"  693","GHEDAUTO OFFICINA                         "
" 1220","GHEDUZZI                                  "
" 1566","GHENIA                                    "
"  780","GHERARDI                                  "
"  302","GHERARDI GIOVANNA                         "
"  304","GIACCI                                    "
" 1816","GIANNOTTI RAFFAELE                        "
"  305","GIATTI GUIDO                              "
"  306","GIBELLINI & MELLI                         "
"  781","GIBI                                      "
"  307","GIGI CASTELN. CICCIOLI                    "
"  308","GIGI SALUM. CICCIOLI                      "
" 1252","GILPI                                     "
" 1471","GIORDANI NATALE                           "
"  795","GIORGIO FANTINI                           "
"  788","GIORGIO GIORGIONE ZECCHI                  "
" 1374","GIORGIO SIENA FESTE                       "
"  310","GIOVANNINI                                "
" 1362","GIOVANNINI - PD CASTENASO                 "
" 1788","GIOVANNINI CARLO (BIASANOT)               "
" 1288","GIOVE - RAPPR. NESTLE' EX EMIGEL          "
" 1634","GIULIA Pomodoro viaggi                    "
"  961","GIULIANO ANELLO SIG. GOVONI GIANCARLO     "
" 1092","GIUSTI MAT. EDILI                         "
"  342","GLOBAL SERVICE (EX BOLOGNA CAR)           "
" 1633","GLOBALCARNI                               "
" 1439","GLOBALCARNI SIG. MISELLI                  "
" 1582","GNUDI MARCO 338 3947320                   "
"  314","GOLDONI ANNIBALE                          "
"  884","GOLF Academy via Cadriano                 "
" 1561","GOLF CLUB CENTO                           "
"  313","GOLFERA                                   "
" 1698","GOLFIERI                         IMPASTO  "
" 1170","GOTTARDI SALUMIFICIO SALAMA DA SUGO       "
"  664","GOTTI ANGELO                              "
"  625","GOTTI GIANNI (SCAVATORI)                  "
" 1062","GPD CARNI                                 "
" 1882","GRAMELLINI                                "
" 1445","GRAMELLINI SIG. MUTTI                     "
" 1792","GRAN AMICA GRANAROLO (ELENA)              "
" 1438","GRANAROLO (amm.ne x copie DDT)            "
"  500","GRANAROLO LATTE - CADRIANO                "
" 1805","GRANAROLO nuovo resp.sig. CARULLI         "
" 1697","GRANDI                           IMPASTO  "
"  791","GRANDINI                                  "
" 1468","GRAZIA LORENZO                            "
" 1517","GRAZIA WILLIAM                            "
"  392","GRILLINI FESTA BUDRIO                     "
"  317","GRUPPIONI                                 "
"  318","GRUPPIONI L'AGRARIA                       "
"  478","GS GIANNI SCHIERI                         "
"  518","GUALANDI STEFANO distrib.IP 761318        "
"   93","GUALTIERI CAFFE'                          "
" 1699","GUBELLINI                        IMPASTO  "
" 1263","GUBELLINI PITTORE QUARTO                  "
"  617","GUERMANDI NEGOZIO FIGLIO DI VALERIO       "
" 1284","GUERMANDI VALERIO NEGOZIO                 "
"    3","GUERRINI CASEIFICIO                       "
"  373","GUERZONI (Andrea 348 4937633)             "
" 1102","GUIDETTI FLAVIO                           "
"  367","GUIDOTTI & GABRIELLI (Luigi 0337 497108)  "
"  401","GUIDOTTI ROMANO                           "
" 1411","GUIZZARDI                                 "
" 1412","GUIZZARDI GIAMPAOLO                       "
"  892","GUIZZARDI MASSIMO                         "
" 1494","GUIZZARDI ROSSELLA                        "
"  632","GURINI                                    "
"  325","GURIOLI                                   "
" 1867","HERA (x TASI sig.ra PALMIRANI)            "
" 1549","HERA BOLOGNA srl sig.GASPERINI            "
"  544","HOSTARIA AL CAPRICORNO                    "
"  329","HOTEL CLES                                "
"  433","I FRESCHISSIMI                            "
" 1509","I'M (EX BAR STELLINA-EX BAR ALL'ANGOLO)   "
" 1512","I'M (PICCOLO PARADISO-SIG.RA FORNASINI    "
"  783","I.B. CALDAIA MAIALI                       "
"  612","I.C.S. DI SPROCATTI VANNI                 "
"  434","I.V.A. SEGRET. PER MODULI                 "
"  787","ICL CESOIATURA LAMIERE D'ANNUCCI ANTONIO  "
"  268","IDEA BAR - VIGORSO                        "
"  715","IDEA BAR GRANAROLO                        "
"  775","IDEA BAR SIG. BALESTRA                    "
"   47","IDEA BAR SIG.RA SUSANNA VENTUROLI         "
"   87","IGNAZIO COSEPURI AUT.PASQUINI             "
" 1752","IL RONCAL                                 "
"  798","IL SOLE                                   "
"  801","ILPAC                                     "
" 1048","ILPAC SIG. DAVI FABRIZIO                  "
" 1404","IMBIANCHINO BAGNOLI ANDREA                "
" 1402","IMBIANCHINO IURI                          "
" 1577","IMIWOOD-IMILEGNO geom. Matteo Savini      "
"  647","IMPOSTE DIRETTE (UFFICIO)                 "
"  437","INALCA                                    "
" 1544","INALCA SIG. LONGHI                        "
" 1868","INALCA TOMMASO                            "
"   33","INCUBATOIO VIA ACERI                      "
" 1029","ING.MACCARI X CALCOLI PARANCO             "
" 1364","INNOCENTI CONSULENZA                      "
" 1055","INSEGNE LUMUNOSE ACRINEON C. SCALORBI     "
"  785","IRBUR (budelle)                           "
" 1499","IRBUR (budelle) MATTIA                    "
" 1375","IRCA - MARCO AUTISTA GIRO MARTEDI         "
"  722","IRCA FRANCESCO MARZETTI                   "
" 1669","IRCA UFF. MARZETTI GIAMPIERO              "
"  432","IRENE                                     "
"  162","IRIS INFORMATICA                          "
" 1337","IRIS INFORMATICA ASS.TELEF.PASSPARTOUT    "
" 1576","IST. ZOOPROFILATTICO                      "
" 1751","IST. ZOOPROFILATTICO DOTT. FEDRIZZI       "
" 1457","IST. ZOOPROFILATTICO DOTT. MERIALDI       "
"   91","ISTIT.IMMOBILIARE IT. BUGLI MIRKA         "
" 1408","ITALPAN - VIGNOLA (CICC.SECCHI)           "
"  419","JULIANO                                   "
" 1139","KARCHER IDROPULITRICE ASS. EUROCOLUMBUS   "
" 1522","KEENNES                                   "
" 1205","KONE comm. DEL VECCHIO LUIGI              "
" 1803","KONE commerciale CAVALLARI 3489080734     "
" 1456","LA DONDINA AGRITURISMO                    "
" 1450","LA DONDINA AGRITURISMO - MARIANA:CUOCA    "
"  337","LA LANTERNA SNC V, VENTOTENE S,MATTEO DE  "
"  955","LA LUMINARIA SIG.MORENO                   "
" 1221","LA MERIDIANA frutta CAPUCCI PAOLO         "
" 1800","LA PATRIA                                 "
" 1799","LA PATRIA SIG FABIO MEDICO                "
"  335","LA ROCCA                                  "
"  800","LA TORRE                                  "
" 1559","LAFFI BILIARDI (figlio 348 0198660)       "
" 1808","LAGHETTI CASTENASO                        "
"  692","LAGHETTI S.DONATO-TOMASO                  "
" 1396","LAINO MAURIZIO (CLAUDIANELLA)             "
" 1580","LAINO ROMEO                               "
"  339","LAMBERTINI AUTOTRASPORTI                  "
" 1666","LAMBERTINI LORENA                         "
" 1587","LAMBERTINI LUCA (ALLEVATORE)              "
" 1884","LAMBERTINI SERGIO                         "
" 1885","LAMBERTINI SERGIO 1                       "
" 1887","LAMBERTINI SERGIO 2                       "
"  336","LANDI ARNALDO                             "
"  444","LANDI BRUNO                               "
" 1700","LANDINI                          IMPASTO  "
"  338","LANDINI CARBURATORISTA                    "
"  701","LANDUZZI RAG.                             "
"  808","LANZARINI DOTT.                           "
"   60","LANZARINI E NOCERA DOTT.                  "
" 1791","LANZI SONIA (CAMPUS ADRIANI)              "
"  939","LANZI TABACCHERIA                         "
"   48","LARI PELLI SIG. DOMENICO BERTANI          "
"  807","LARIO                                     "
"  446","LARIO (DOMENICHINI)                       "
" 1505","LAURENZA                                  "
" 1749","LAUTIZI (CLIENTE PORCHETTA)               "
"  448","LAZZARI-ARTINI (notaio)                   "
"  936","LE STELLE RIST. SIG. TABARONI             "
" 1182","LEGATRICE DA PROSCIUTTI SIG. MARINELLI    "
" 1546","LEGNANI (MASSIMO 335 7886748)             "
" 1547","LEGNANI STEFANO - (cellul. 335 5420268)   "
"  803","LELLI                                     "
"  443","LEMCA SIG. SIMONI                         "
"  442","LESI FERRAMENTA                           "
"  406","LEVIS                                     "
"  289","LIMOUSINE G. BENZI                        "
" 1018","LIMOUSINE GASTRONOMIA                     "
" 1708","LIPPARINI LORIS                  IMPASTO  "
"  340","LIPPI                                     "
"  750","LITOGRAFIA ANZANI PARMA                   "
"  427","LITOGRAFIA REVERBERI                      "
" 1615","LIVANI RAPPR. EMIL-CARNI                  "
" 1609","LOCONTE GIOVANNI (cuoco)                  "
" 1320","LOMBARDO S. LAZZARO                       "
" 1640","LOREN SRL                                 "
" 1186","LOREN SRL ARMAROLI DAVIDE                 "
"  385","LOREN SRL AVONI                           "
" 1864","LORENZI DAVIDE                            "
" 1869","LORENZI SALUMIFICIO SEDE                  "
"  578","LORENZINI SILVANO                         "
"  938","LUCA VERICELLI FAUSTO MEDICI              "
"  986","LUCCHI LORIS                              "
"  350","LUCCHI LORIS (CULATELLO - PROSC.)         "
" 1042","LUCHENA (telecom S.Donato,56)             "
"  470","MAC AUT SIG. BARBIERI                     "
" 1528","MAC-PROGRAM ASS. SOTTOVUOTO VIGNOLA       "
" 1527","MAC-PROGRAM ASSISTENZA SOTTOVUOTO         "
" 1704","MACCAFERRI                       IMPASTO  "
"  993","MACCAGNANI (AMICO GUERZONI)               "
"  654","MACCARI ING. X CALCOLI PARANCO            "
" 1511","MACCHINA PER TARTARE DIEGO ARMANDO CUNEO  "
"   11","MACELLERIA BOTTEGA CARNI CADRIANO         "
"  861","MACELLERIA PADERNI                        "
"  863","MACELLERIA PLENTY MARKET                  "
" 1019","MACELLO FIORINI                           "
" 1240","MACELLO MALABERGO                         "
"  815","MACELLO MARAZZI BATTISTA                  "
"  810","MACELLO SABIN SIG. FRANCOISE RUSSO-SABLE  "
"  465","MACELLO VIGNOLCARNI GIOVANELLI GIULIANO   "
"  316","MADICAR                                   "
"  926","MADICAR            FAX                    "
" 1653","MAGAZZINO CARNI                           "
" 1746","MAGAZZINO CARNI TIM 21/02/14              "
" 1705","MAGLI                            IMPASTO  "
" 1539","MAGLI LUCA SERRAMENTI EMILIANI            "
" 1811","MAGLI SERRAMENTI EMILIANI                 "
"   18","MAGNONI SALUM- MICHELE AUTISTA            "
"  829","MAIANI                                    "
" 1542","MALAGNI MARIO FAUSTA                      "
"  990","MALAGOLI LEONARDO                         "
"  827","MALAGUTI                                  "
"  879","MALAGUTI E GOVONI (FUNO)                  "
" 1623","MALAVASI                                  "
" 1583","MANDELLI DARIO                            "
"  156","MANDRIOLI                                 "
"  485","MANDRIOLI ALDO                            "
" 1768","MANFERDINI CARLO 3401397950               "
" 1078","MANFREDI AUGUSTO                          "
" 1584","MANFREDI EMMA casa 051 0415830            "
"  834","MANFREDI FEDERICO                         "
" 1830","MANFREDI GUIDO                            "
"  332","MANICA F.LLI (Camillo 0347 3541908)       "
"  460","MANTOVANI VISCORA-FIBROUS                 "
"  417","MANTOVANI PAOLO elettrauto                "
" 1649","MANUTENCOOP MASI 335343441                "
"  474","MANZINI AZ.AGRICOLA VINO                  "
"  821","MARANI CLAUDIO                            "
" 1168","MARANI CLAUDIO cell.335 6612627           "
" 1824","MARASCO BRUNO DOTT. 3392879982            "
" 1701","MARCHESI                         IMPASTO  "
" 1607","MARCHI LEO                                "
"   84","MARCHI SALUMIFICIO                        "
"  804","MARCHINI ditta TASSELLI frigo 0376-5161   "
"  956","MARCO                                     "
" 1105","MARCO HOTEL MILANO                        "
"   35","MARCO RAGNI - SPIDERS MAT.PUBBL.          "
"  618","MARCONI FABIO                             "
" 1449","MARCONI FABIO FABIO                       "
" 1049","MARCONI MAMMA                             "
" 1578","MARESCIALLO CAPO STRAPPATO ANGELO         "
" 1763","MARGAGLIOTTA                              "
" 1302","MARGOT - FIORAIA GRANAROLO                "
" 1178","MARIA AMICA FLAVIO ZANNONI                "
"  418","MARISA CESARI - X MOSCATO - CHIAPPARINI   "
"  450","MARKET INGROSS CRESPELLANO                "
"   16","MARKET INGROSS VIGNOLA                    "
"  974","MARMITTE F.LLI BASTELLI                   "
" 1334","MARSURA PROSECCO SIG.NATALE               "
"  751","MARTELLI                                  "
"  464","MARTELLI GIANNINO                         "
"  223","MARTELLI MARIO IR 338 6568847             "
"  127","MARTELLI MARIO IR INGEGNERI RIUNITI       "
" 1759","MARTINI ALIMENTARI (sig.Maurizio)         "
"  466","MARVERTI                                  "
"  345","MARZADORI SERGIO                          "
"  343","MARZOCCHI MARCO                           "
" 1002","MASELLI MASSIMO cell.                     "
"  512","MASI ROBERTO RAG.                         "
"  459","MASI SALUMIFICIO (Monteveglio)            "
" 1296","MASINI (concia x salumi)                  "
"  699","MATTEI PIANTE                             "
"  315","MAURIZIO BARBIERI                         "
" 1541","MAURIZIO BARBIERI cell. moglie            "
" 1127","MAURIZZI ANDREA                           "
" 1319","MAZZA DOTT.                               "
" 1762","MAZZANTI MASSIMO                          "
"  809","MAZZOLI DITTA SIG. BACCHI BRUNO           "
" 1513","MAZZOLI DOTT.                             "
"  347","MAZZONI                                   "
" 1773","MEA FORTINI SIMONE 335 6789893            "
"  213","MEA PORTE (TECNICO CAVICCHIOLI)           "
" 1835","MEA SIMONE                                "
"  824","MECCANICO BACCHELLI ALTEDO                "
" 1417","MECCANICO BIANCONCINI VOLSWAGHEN          "
"  814","MECCANICO MOTO ROVERSI MIRCO              "
"  819","MECCANICO SAF AUTO FIAT BUDRIO            "
"  468","MECCANICO-CANETOLI                        "
"  949","MEDICI FAUSTO                             "
"  948","MEDICI FAUSTO VM IDRAULICI                "
"  820","MELIS FRANCO                              "
"  454","MENGOLI                                   "
" 1702","MENGOLI (CA'DE' FABBRI)          IMPASTO  "
" 1872","MENGOLI (PD CASTENASO) CASA SANT'ANNA     "
" 1658","MENGOLI (PD CASTENASO) CRESCENTINE UVA    "
"  482","MENGOLI - VETRAIO BARICELLA               "
"  405","MENGOLI SALVA (Tortellini)                "
" 1612","MENGOLI SIG.RA PARR.S.TERESA              "
"  811","MENGOLI STEFANO                           "
" 1222","MERIDIANA vedi LA MERIDIANA               "
" 1777","MERIGHI SAURO                             "
"  637","MERIGHI-TRIPPERIA                         "
"  488","METRO                                     "
" 1165","METTLER-TOLEDO sig.ANDRETTA               "
"  456","MEZZETTI DOTT. ANTONIO                    "
" 1028","MEZZETTI DOC. ANTONIO                     "
" 1390","MFB                                       "
" 1370","MFB MARCECA MARCO                         "
" 1130","MFB SIG. MASELLI MASSIMO OLIVETTI         "
" 1079","MFB SIG.CLAUDIO                           "
"  333","MICA UFFICIO CARRA'                       "
"  452","MICCOLI RIST. MAURO                       "
" 1530","MICROIT (VANNI)                           "
"  941","MIGLIANTI DUILIO                          "
"  960","MIGLIANTI MARCO 348 4076929               "
" 1413","MIGLIANTI MIRCO 335 6498623               "
"  420","MIGNANI DOTT. FRANCESCO                   "
" 1357","MINARELLI LIVIANA                         "
" 1132","MINARELLI PADRE DI DANIELE OST.BOTTEGA    "
" 1180","MODELLI ANDREA                            "
"  823","MODEN FRUIT                               "
"  896","MOLINARI PRADELLI ALESSANDRO              "
" 1234","MONARI - POD DELLE ROCCHE X VINO          "
"  425","MONTALI ADOLFO SIG. GIANNI                "
" 1772","MONTANARI                                 "
"  483","MONTANARI GEOM.PIETRO                     "
" 1111","MONTANARI STEFANO (PASTA GRAGNANO)        "
"  741","MONTECCHI IMPERIA                         "
"  453","MONTECCHI IMPERIA BARBIERI                "
"  473","MONTECHIODO                               "
" 1343","MONTECHIODO PROSCIUTTI BOLZONI GIULIANO   "
" 1854","MONTI - HERA                              "
"  198","MONTORSI                                  "
"  458","MOP CASTENASO                             "
" 1603","MOP INGROSSO                              "
" 1385","MOSCATELLO DOTT.SSA                       "
"  818","MURATORE FIORENZUOLO LUIGI                "
"  817","MURATORE SAVERINO MAURIZIO                "
"  352","MUSIANI GIULIO                            "
" 1172","MUSIANI CLAUDIO ALLEVATORE                "
"  489","MUSIANI EXPRESS - AGENZIA SIG.DAVIDE      "
"  822","MUSIANI LUCIANO - ARCI GRANAROLO-FLORIDA  "
" 1585","MUSOLESI (BO-BEST)                        "
" 1387","MUZZI MAURIZIO                            "
"  494","N.S.C. AUTO                               "
" 1706","NALDI                            IMPASTO  "
"  495","NALDI & CASTELVETRI                       "
" 1260","NALDI STEFANO 335 6112493                 "
"  492","NANETTI-CALDAIE                           "
"  491","NANNI GIUSEPPE                            "
"  493","NANNI PIETRE NATURALI                     "
"  832","NANNI FA                                  "
" 1769","NATALINI                                  "
"  496","NATURALGRASSI                             "
" 1551","NAVELLI IMPIANTI ABBATITORE TEMP.         "
" 1707","NEGRINI FRANCO                   IMPASTO  "
" 1003","NEGRINI GIORGIO                           "
"  481","NEGRINI MARINO                            "
" 1451","NEGRINI PAOLO CONDIZIONATORI MINERBIO     "
" 1610","NEGRINI SIG.RA LINA (EX BOUTIQUE)         "
"  102","NEGRINI SPA INDUSTRIA CARNI               "
"  131","NERI DR. SABRINA                          "
"  178","NERI ING.WERTHER                          "
" 1287","NESTLE' SIG. GIOVE                        "
"  833","NET WORK SIG. MIGLIANTI                   "
"  394","NICOLETTA                                 "
"   80","NINI DAVIDE 339 3844618                   "
" 1464","NIRO                                      "
" 1403","NOCERA DOTT.SSA                           "
"  831","NUOVA GROSOLI                             "
" 1328","NUOVA SEL OFFICINA DIESEL FRIGO           "
"  572","NUOVA VALPANARO (RICCI LORENO)            "
"  702","OGNIBENE SPA                              "
" 1825","OLD BRIDGE - CHRISTIAN ALLEVATO           "
" 1826","OLD BRIDGE - VALERIO                      "
"  707","OLIVATO                          IMPASTO  "
" 1711","OLMI                             IMPASTO  "
"  136","OMEGA BIL. ASER - tecnico Alessio         "
" 1203","OMEGA BILANCE tecnico prog.MENNI NICOLA   "
"  362","ONOFRI ANDREA                             "
"  836","ORLANDI DOTT. VALERIO                     "
"  839","ORLANDINI AZ. AGRICOLA                    "
"  640","ORLANDINI AZ. AGRICOLA ALESSANDRO         "
" 1006","ORSI BRUNO                       IMPASTO  "
" 1672","ORSI RINO                        IMPASTO  "
" 1156","ORTO CORI - RAPPR. FURLAN                 "
" 1827","OSCARTIELLE BANCHI E CELLE FRIGO          "
"  503","OSPEDALE CASTEL S.PIETRO                  "
" 1091","OSPEDALE CENTO (ORTOPEDIA)                "
"  846","OSSA MR. BRIAN                            "
"  841","OSSARI F.LLI                              "
" 1626","OSTERIA BOTTEGA Sig.Daniele               "
" 1624","OSTERIA BOTTEGA Padre di Daniele          "
"  508","OSTERIA DEI PLATANI                       "
"  158","OSTERIA DEL MELO                          "
"  837","OSTERIA DELLA PESA                        "
"  220","OSTERIA DELLA PESA - MINERBIO             "
"  509","OTELLO                                    "
"  686","OXA SAS                                   "
"  862","PADERNI                                   "
"  631","PADUANO GIANCARLO                         "
" 1435","PAGANI F.LLI SIG SCAPIN                   "
" 1068","PAGANI PAOLO CAPO OFFICINA SIRIO          "
"  564","PAGNONI ROBERTA PARR. SAN DONNINO         "
"  529","PAIOLI S.P.A.                             "
"  535","PALTRINIERI FLAVIO                        "
" 1758","PANCALDI                         IMPASTO  "
"  539","PANCALDI (X SUINI)                        "
"  864","PANDINESE MACCHINE PER MACELLI            "
" 1363","PAOLO & TOM GOMME MINERBIO                "
"  327","PAOLO (FRIGORISTA ICS)                    "
"  522","PAPER LYNEN PAL-CAPS SRL A99C11           "
"  346","PARCO DEI CEDRI GEL.(sig. TINTO)          "
" 1716","PARENTI                          IMPASTO  "
" 1847","PARILLA EUGENIO                           "
"  516","PARISIO NOTAIO                            "
"  633","PARMA FRANCO                              "
"  959","PARMEGGIANI GIANCARLO MACCH. X SALUM.     "
" 1635","PARMEGGIANI UMBERTO                       "
" 1657","PARR. BAGNAROLA (FAUSTO)                  "
" 1470","PARR. CADRIANO - SIG.RA PAOLA             "
" 1202","PARR. PIEVE - SIG.CACCIARI CARLO          "
"  561","PARR. QUARTO INF.                         "
" 1774","PARR. QUARTO SIG. ROCCO                   "
" 1660","PARR. S. MARTINO (LIDIA RENESTO)          "
"  209","PARR. S. RITA                             "
" 1613","PARR. S.TERESA SIG.RA MENGOLI             "
"  262","PARR. S.TERESA SIG.RA STEFANIA            "
"  558","PARR. SAN DONNINO SIG.RA PAGNONI          "
"  995","PARR. SAN MARTINO SOVV. SIG.RA BALLANDI   "
"  922","PARROCCHIA PIEVE DI BUDRIO                "
" 1429","PASCERI RAFFAELE                          "
"  380","PASCERI RAFFAELE (0339 5443104)           "
" 1033","PASI GIANNI                               "
" 1747","PASQUALI                                  "
"  971","PASQUALI DANIELE                          "
" 1469","PASQUALI MAMMA DANIELE                    "
"  330","PASQUALI REMO                             "
" 1797","PASQUALI ROMANA                           "
"  587","PASQUINI ENNIO                            "
" 1198","PASSARO                          IMPASTO  "
" 1020","PASTICCERIA BABA BA-MA SRL                "
"  358","PAVANI MASSIMO                            "
"  514","PAVAROTTI                                 "
"  848","PAVESI                                    "
"  527","PAZZAGLIA & FIORINI                       "
"  295","PD (RENO) Sig.ra MARISA                   "
" 1521","PD amministrazione sig.ra Elisabetta      "
" 1158","PD CASTELMAGGIORE SIG. SCALAMBRA          "
" 1644","PD CASTENASO FESTA                        "
"  894","PD CASTENASO FESTA SIG.CASOLARI           "
" 1476","PD CASTENASO FESTA SIG.GIANNI CASADEI     "
"  106","PD CASTENASO FESTA SIG.SERRA CRISTIAN     "
"   66","PD DOZZA SIG. BERTOLI                     "
"   41","PD FESTA DUE MADONNE BELLETTI             "
" 1379","PD FESTA PROVINCIALE RIST. GALLO          "
" 1560","PD P.ZZA CARDUCCI (SIG.RA ANNA ROSA)      "
" 1250","PD PILASTRO                               "
"   85","PD RENO                                   "
" 1053","PD RENO STAGNI                            "
" 1837","PD REPUBBLICA ENRICO                      "
" 1874","PD S.VITALE                               "
" 1361","PD SEZ. CORAZZA SIRENELLA                 "
"  547","PEDRAZZOLI SALUMIFICIO                    "
" 1023","PEDRAZZOLI STEFANO                        "
"  976","PEDRIELLI COSTANTINO             IMPASTO  "
"  497","PELLONI PROSCIUTTIFICIO                   "
"  857","PENTA '92                                 "
" 1622","PENTACOM                                  "
" 1814","PENTACOM (formazione apprendisti)         "
"  520","PEPPINA VENTUROLI GIUSEPPINA              "
" 1177","PERI                                      "
"  359","PERLA FRANCO                              "
" 1218","PERLANGELI ing.ROBERTO (626)              "
" 1100","PESCI                                     "
" 1115","PESCI COMITATO QUARTO DI LUNA             "
" 1714","PESCI PIETRO                     IMPASTO  "
"  726","PEZZOLI VALMORE OFFICINA                  "
" 1027","PEZZOLI VINO E BOTTIGLIE                  "
" 1712","PIANCASTELLI                     IMPASTO  "
" 1141","PIAZZA VECCHIA (AMERIGO)                  "
" 1192","PIAZZA VECCHIA RAPPR. PIETRO DELLA VALLE  "
"  851","PIAZZI F.LLI                              "
" 1823","PIAZZI FIORENZO                           "
"  532","PIAZZI-ARREDAMENTI                        "
"  472","PICARI TAV.                               "
" 1548","PICCININI RICAMBI GAS FILTRI INSACCATRIC  "
" 1099","PICCININI TERMOSTATI                      "
"  139","PICCOLO COW BOY                           "
"  912","PICCOLO PRINCIPE ASS.                     "
" 1865","PICCOLO PRINCIPE ASS. SIG.RA ANGELA       "
"  525","PIERANTONI                                "
"  360","PIERANTONI (rappr. Barigazzi)             "
"  323","PILOTTI MACCH. INTENER. VEPA (GIUSEPPE)   "
" 1350","PILOTTI MACCHINE X MACELLERIA             "
"  513","PINARDI BRUNO                             "
"  351","PINCA CLAUDIO coperture catrame           "
"  519","PISA                                      "
"  521","PIVANTI DARIO                             "
"  541","PIZZ. PUNTO PIZZA                         "
"  536","PIZZERIA AL CUNTADEN                      "
" 1103","PIZZERIA AL CASTELLO                      "
"  439","PIZZERIA LA ROSA DEI VENTI                "
"  999","PIZZERIA PIERO EXPRESS                    "
" 1269","PIZZIRANI MAURO                           "
" 1086","PIZZOLI PATATE ordine                     "
" 1591","PIZZOLI-PATATE (pesa x ritiro)            "
" 1446","PIZZOLI-PATATE SURG.SIG. MANTOVANI        "
" 1483","PLASTOTECNICA ALESSANDRO                  "
"  697","PLAY SPORT                                "
"  356","PLENTY MARKET                             "
"  517","PLURICART                                 "
" 1235","PODERI DELLE ROCCHE - MONARI/TAMBURINI    "
"  530","POGGI MASSIMO                             "
"  718","POGGIOLI MARCO                            "
"  361","POLI FAGGIOLI                             "
"  858","POLI ENRICO O ANDREA                      "
" 1204","POLIAMB. GOLFIERI SAN DONATO              "
"  855","POLIAMB. SAN DONATO                       "
" 1465","POLUZZI DONATA (SCOUT - PARR.S.RITA)      "
" 1787","POMODORO VIAGGI GIULIA V.FARINI           "
" 1713","POPPI                            IMPASTO  "
"  856","PORCHETTE CARIM SIG. STEFANO              "
" 1175","PORCHETTE SALUMIFICIO CAPPELLI VINICIO    "
" 1159","PORCHETTE SIG TOSI                        "
"  523","POSTA GEOM. GRILLINI                      "
" 1345","POZZARINI DAVIDE                          "
"  777","PREDIERI SIMONA                           "
"  526","PRESIDENT DATA SYSTEM (LARIO)             "
"  477","PRESIDENTE MACELLAI BOLOGNA               "
" 1876","PRO-LOCO ARGELATO SIG.RA LORENA           "
" 1342","PRO-LOCO CASTELLO D'ARGILE                "
"  947","PRO-LOCO SIG. RAPPARINI                   "
" 1594","PRO-LOCO SIG.RA MONICA                    "
" 1590","PRONI E ZACCHERINI AUTISTA                "
"  283","PRONI ZACCHERINI                          "
"  931","PRONI ZACCHERINI    FAX                   "
" 1046","PRONTO LUCE FAX 761691                    "
" 1045","PRONTO LUCE MAURIZIO                      "
"  850","PROSCIUTTI AUTOTRASPORTI F.LLI PIAZZA     "
" 1426","PROSCIUTTI BARDINI F.LLI                  "
"  917","PROSCIUTTI BEA                            "
" 1201","PROSCIUTTI BORGO ANTICO                   "
"  730","PROSCIUTTI CASCINABOSCO                   "
" 1106","PROSCIUTTI CATTABIANI/MONTALI             "
"  645","PROSCIUTTI GIELLE                         "
" 1081","PROSCIUTTI M W Sig MONTORSI WILLIAM       "
" 1880","PROSCIUTTI M.C.srl MAURO                  "
"  754","PROSCIUTTI MONTALI ADOLFO                 "
"  219","PROSCIUTTI MONTECHIODO                    "
" 1074","PROSCIUTTI NINI GIANFRANCO                "
"  918","PROSCIUTTI PICARON S. DANIELE             "
"  906","PROSCIUTTI QUATTRO STAGIONI               "
"  866","PROSCIUTTI QUINZANELLO                    "
"  813","PROSCIUTTI REAL CASTELLO                  "
"  867","PROSCIUTTI ROMANO                         "
"  476","PROSCIUTTI STAPROL                        "
"   46","PROSCIUTTI VIGNOLI                        "
"  216","PROSCIUTTI VITALI SIG DAVIDE              "
" 1293","PROSCIUTTI VITALI SIG ROSSANO E DAVIDE    "
" 1563","PUCCIO AGRITURISMO S.MARIA DI BAGNAROLA   "
" 1157","PULITEC assistenza e prodotti             "
" 1631","PULITEC ASSISTENZA SEDE                   "
" 1531","PULIZIE NEGOZIO (DRC di DAVID MARCO)      "
" 1064","Q EVENTI                                  "
" 1301","QUAGLIA FRANCO (coltelli-attrezz.)        "
" 1621","QUARTO PROGETTO s.r.l.                    "
"  543","QUATTRO STAGIONI SIG. ALEOTTI             "
"  557","R.C.A. COMPRESSORI                        "
"  554","R.C.M. LANGHIRANO                         "
"  279","R.E. ASSISTENZA FORNO ZANUSSI             "
"  349","R.P. GRASSI S.R.L. (strutto)              "
" 1314","RAMPULLA LUCIO UFFICIO                    "
"  364","RANDI C.N.A. ALIMENTARISTI                "
" 1067","RANE FISH & FROG SIG. LUCA                "
"   99","RATTI                                     "
" 1366","RAUL ADDIVINOLA                           "
" 1349","RCM MOTOSCOPE SIG. LINO DI CUONZO         "
"  546","REALE MUTUA CANTELLI                      "
" 1228","REALI SETTIMIO                            "
" 1718","REGAZZI                          IMPASTO  "
" 1459","REMO CRISTIAN INGEGNERE (amico Guido)     "
" 1414","RENATO LOCALI BONDI                       "
" 1129","RESCA LENA 339 4703143                    "
" 1044","RESCA RENATA                              "
" 1184","REVISIONI AUTO MOTO CARROZZ. VILLANOVA    "
" 1070","REVISIONI AUTO MOTO CENTRO VILLANOVA      "
" 1526","RICAMBI SOTTO VUOTO ORTECO                "
"  548","RICCI LORENO                              "
"  160","RICCI ALESSANDRO 335 1012984              "
"   73","RICCI LUCA                                "
"  550","RIGAMONTI                                 "
" 1116","RIGAMONTI SIG. VENDITTI                   "
" 1199","RIMAC - CUCCA                             "
"  735","RIMONDINI -AIRONE- CASTENASO              "
" 1719","RIMONDINI GINO                   IMPASTO  "
" 1717","RINALDI                          IMPASTO  "
" 1780","RINALDI STALLA GRANAROLO                  "
"  792","RIST. ALVES                               "
"   40","RIST. ASTERISCO                           "
" 1007","RIST. BELLINI BIEMME                      "
"  736","RIST. BITONE                              "
"  919","RIST. CANALETTI                           "
"  370","RIST. CAPRICCIO DI GOLA                   "
"  576","RIST. CASA DELLE AIE                      "
"  291","RIST. CASTELLUCCIO                        "
"  528","RIST. CINESE TAUCHEN                      "
"  590","RIST. CLAN PAVI' CESENATICO               "
"  559","RIST. CLAUDIA                             "
"  567","RIST. GAIDELLO CLUB                       "
"  566","RIST. I GAETANO                           "
" 1667","RIST. IL GIARDINO                         "
"  440","RIST. L'OTTOCENTO                         "
"  659","RIST. L'URTIGA                            "
"  565","RIST. LA CESOIA                           "
"  568","RIST. LE STELLE                           "
"  609","RIST. MAURO                               "
"  537","RIST. RONCO di NERINI srl                 "
"  677","RIST. SOCIETA' OSTI                       "
"  600","RIST. VENTUROLI VALERIO                   "
"  445","RIST. WILMA                               "
"  369","RIST. ZULA                                "
" 1289","RISTO FRESCO                              "
"  629","RIZZARDI CARNI                            "
" 1523","RIZZI STEFANO ass. macchina s/vuoto       "
"  870","RIZZOLI GEOM. SPIGA                       "
" 1119","RIZZOLI MASSIMO                           "
"  911","ROLLER GRILL                              "
"  628","ROMAGNOLI - CORDA                         "
"  937","ROMAGNOLI MAURO                           "
" 1333","ROMANIN                                   "
"  555","ROMANO PROSCIUTTI PRESSATI                "
"  164","ROMANO GIORGIO                            "
"   50","ROMEO FRUTTA (FRANCA 0335 7143245)        "
"   43","ROMEO FRUTTA (sig.ra FRANCA 387226)       "
"  371","RONCAGLIA                                 "
"  786","ROSI ALESSIO 338 3858139                  "
" 1720","ROSSI                            IMPASTO  "
"  549","ROSSI ANNA                                "
"  553","ROSSI & CANETOLI OFFICINA AUTO            "
"   82","ROSSI FEDERICO                            "
"  451","ROTHO BLASS                               "
"  868","ROTOCEL                                   "
" 1860","ROZZI STAGIONA DA MONTALI                 "
" 1376","RT ELETTRONICA                            "
"  653","RUBBI RAG.                                "
" 1210","RUBINI MAURO (X CARNEVALE GRANAROLO)      "
"  598","S.A.P.A. (FRIGILINE)                      "
"  376","S.I.P.A. SRL                              "
"  594","S.I.P.A. (MI)                             "
"  585","S.M. DI ZIRONI                            "
"  391","SAB DUE fabbro 392 9659780 Domenico       "
" 1310","SABBATANI (FABBRO)                        "
" 1723","SACCHETTI (MEZZOLARA)            IMPASTO  "
"  889","SAF AUTO BUDRIO                           "
"  379","SAGRA SETTEMBRINA RAG. CARLO VILLANI      "
" 1039","SAGUATTI CRISTINA                         "
"   96","SAGUATTI LOREDANA                         "
" 1381","SAGUATTI ROBERTO                          "
"   34","SAGUATTI ROBERTO casa 051767399           "
" 1013","SAI ASSICURAZIONE                         "
"  583","SAI ASSICURAZIONE (TARTARINI)             "
" 1503","SALA CUPPINI CASTENASO - SIG.ANGELINI     "
"  381","SALE LAMBERTINI                           "
" 1282","SALICINI STUDIO TEC. GEOM.FAX 0516066049  "
"  120","SALITURO LOREDANA                         "
" 1727","SALMI                            IMPASTO  "
"  614","SALMI RINO                                "
"  390","SALUMIFICIO ALSENESE                      "
" 1405","SALUMIFICIO BBS Marco Bartoli             "
"  923","SALUMIFICIO BELLUCCI                      "
" 1592","SALUMIFICIO BOLOGNESE-EMILIANO            "
"  556","SALUMIFICIO CAPPELLI                      "
"  580","SALUMIFICIO DEI GEMELLI                   "
"  579","SALUMIFICIO ESTENSE                       "
"  799","SALUMIFICIO FELSINEO                      "
" 1524","SALUMIFICIO GALLERANI                     "
" 1166","SALUMIFICIO GIGI                          "
"  877","SALUMIFICIO GIGLI                         "
"  761","SALUMIFICIO GILIOLI FERRARI               "
" 1888","SALUMIFICIO MALAFRONTE                    "
" 1140","SALUMIFICIO NEGRONI A.I.A.                "
"  845","SALUMIFICIO PASQUINI ENNIO                "
"  623","SALUMIFICIO PAVAROTTI                     "
"  849","SALUMIFICIO PAVESI                        "
"  902","SALUMIFICIO PEDRAZZOLI                    "
" 1128","SALUMIFICIO POSTAL CULACCIE               "
"  449","SALUMIFICIO PRINCIPE                      "
"  319","SALUMIFICIO SAN CARLO                     "
" 1432","SALUMIFICIO SASSI                         "
" 1431","SALUMIFICIO SASSI - MARCO                 "
"  603","SALUMIFICIO SASSO                         "
"  622","SALUMIFICIO SIMONI                        "
"  581","SALUMIFICIO SORGENTE                      "
"  666","SALUMIFICIO VALPANARO (RICCI)             "
"  610","SALUMIFICIO VALTIEPIDO                    "
" 1077","SALUMIFICIO VECCHI                        "
"  524","SALUMIFICIO VILLANI                       "
" 1593","SALUMIFICIO EMILIANO (EX-BOLOGNESE)       "
" 1174","SALUMIFICIO CAPPELLI VINICIO x PORCHETTE  "
" 1493","SALUMIFICIO GOTTARDI ERCOLE(salama sugo)  "
" 1351","SALUMIFICIO SAN CARLO (NEGRINI ERMANNO)   "
"  876","SAMOGGIA                                  "
" 1611","SAMONATI LORENZO                          "
"  602","SAN GEMINIANO (SIG. BREGOLI)              "
" 1298","SAN MARCO PROSC.(CULATELLI)               "
" 1745","SAN PIETRO SALUMIFICIO                    "
"  593","SANT' UNIONE                              "
" 1602","SANTO STEFANO CARNI LUCA CHEMELLO         "
"  826","SANTO STEFANO CARNI MARCO CHEMELLO        "
" 1721","SANTUCCI                         IMPASTO  "
" 1021","SANTUCCI ANDREA                           "
" 1341","SARTI ARRIGO                              "
" 1355","SARTI ENRICO 335 6611885                  "
" 1311","SARTI LORIS FAX 051 860134                "
" 1335","SARTI RAFFAELE                            "
" 1726","SARTI SEVERINO                   IMPASTO  "
"  499","SASATELLI CHRISTIAN                       "
" 1637","SASSATELLI CRISTIAN                       "
" 1383","SASSATELLI WALTER                         "
"  404","SASSI F.LLI (LINO ADORNI)                 "
" 1434","SASSI F.LLI (SIG. ANDREA)                 "
" 1336","SASSI F.LLI SIG. MARCO                    "
"  592","SCAGLIARINI                               "
" 1806","SCALZOTTO                                 "
"  589","SCARABELLI                                "
" 1024","SCARPE ANTIFORT. OXA SAS SAN LAZZARO      "
" 1842","SCARPELLINI ALAN                          "
"  377","SCHIAVINA GIANPAOLO                       "
" 1368","SCHIAVINA FRATELLO DI GIANPAOLO           "
"  487","SCUOLA MATERNA DAMIANI                    "
"  171","SCUOLA MEDIA MATTEUCCI - GRANAROLO EMIL   "
"  883","SCUOLA RODARI                             "
"  882","SCUOLA ROLANDINO                          "
" 1725","SCURZONI                         IMPASTO  "
" 1646","SEAT PAGINE GIALLE BARATTA CLAUDIO        "
"  588","SECCHI F.LLI                              "
" 1012","SECURNOVA Gentilini Alessand.335 5496304  "
"  569","SEGATA S.P.A.                             "
" 1545","SEGATA(marco.franchini@fastwebnet.it)ord  "
"  932","SELBO DI SELBA FRANCESCO PROGETTO AUTOM.  "
" 1724","SERMENGHI                        IMPASTO  "
"  888","SERRANDE BONAZZI                          "
"  887","SERRANDE GRANDINI                         "
"  510","SFORZA GEN.                               "
" 1242","SIAC                                      "
" 1427","SIAE - RAIMONDI CASTEL MAGGIORE           "
"  805","SICURECO (Innocenti)                      "
"  616","SILLA CARNI                               "
" 1232","SILLICO MAMMA DOTT.SSA                    "
"  880","SILVANA SIG.RA FORNASARI                  "
"  596","SILVER                                    "
" 1354","SILVESTRI (rappr.BABBI)                   "
" 1883","SIMONE BEPPE DISOSSATORE                  "
"  591","SIMONI                                    "
" 1448","SIMONI DOTT. MARCO (amb.GRANAR. 762810)   "
"  534","SIMONI DOTT. MARCO UFF. PRENOTAZIONE      "
" 1567","SIR RETI METALLICHE SIG CINELLI MASSIM.   "
" 1740","SIREC - RESINE ROSSI ALESSIO              "
"  353","SIRIO                                     "
" 1005","SIRIO (sig. FOCARAZZO)                    "
" 1071","SIRIO CAPO OFFICINA PAOLO PAGANI          "
"  461","SIRIO SIG. DALL'OGLIO                     "
"  542","SIRO FERRAMENTA (SCARPE ANTINFORT.)       "
"  872","SITIA-YOMO - deposito Argelato            "
" 1279","Sicurezza 626 ing.TESTA                   "
"  852","SMAIA CLAUDIO                             "
"  245","SMART (Enzo-Giuseppe)                     "
"  195","SOCIETA' GAMMA                            "
"  607","SOCIETA' OSTI                             "
"   67","SOCIETA'COOPERATIVA BILANCIAI             "
"  276","SOGEGROSS -CASH DI BOLOGNA                "
"  962","SOLA - CASTELVETRO                        "
"  604","SONIA BELLA DI BELLINI (MN)               "
"  963","SOON SERVICE ALLY SRL                     "
" 1108","SOON SERVICE VICENZA                      "
" 1197","SOTTOVUOTO ASSIST.CATELLANI FORTUNATO     "
" 1728","SOVERINI                         IMPASTO  "
"  595","SPALANZANI                                "
" 1137","SPANAZZI VANNES (CELLULARE MOGLIE)        "
"  278","SPANAZZI VANNES (CELLULARE)               "
" 1054","SPANAZZI VANNES (PANIFICIO)               "
" 1836","SPE CARLINO MANCINI GIANLUCA              "
" 1655","SPECIALCAR                                "
" 1490","SPIDERS - MAGLIETTE- MAT.PUBBLICITARIO    "
"  921","SPIGA MAURO 0338-4272722                  "
" 1340","SPRINT - BO SIG.RA DE RIVA MONIA          "
" 1359","SPRINT SPA (LORENZA DERIVA)NUOVO X LAVOR  "
"  966","SPROCATTI VANNI -ICS- 3356578088          "
"  886","SPY NORD                                  "
" 1110","STACCOLI PASTICC. (SIG.RA GIORGIA)        "
"  501","STAGNI PD RENO                            "
" 1399","STAGNI SERV. AGIP                         "
" 1398","STAGNI SERV. AGIP - DISTRIBUTORE          "
"  898","STANCARI AGOSTINO                         "
"  611","STANCARI TIMMIO                           "
" 1122","STANGHELLINI                              "
"  447","STANZANI DOTT.SA FAUSTA                   "
"  615","STANZANI F.LLI FORNO                      "
" 1815","STANZANI GIANNI STUDIO TECNICO            "
" 1533","STANZANI LUCA (CLUB BASOLO)               "
"  586","STAPROL                                   "
" 1329","STEFANELLI KATIA                          "
" 1215","STEFANELLI STEFANO                        "
" 1491","STEFANI                                   "
"  768","STEFANI VIA S.MARTA 6 FUNO                "
" 1500","STEFANIA GALAVERNA                        "
" 1069","STELLA 81                                 "
" 1722","STELLATI                         IMPASTO  "
"   15","STRACCIARI                                "
" 1051","STRAPPATO ANGELO MARESCIALLO CAPO         "
" 1536","STRAZZARI                        IMPASTO  "
"  957","STURCHIO MECCANICO BICICLETTE             "
" 1540","SUINCOM                                   "
" 1841","SUINCOM SIG MASETTI ALESSANDRO            "
"  619","SUOR ELIA                                 "
"   12","T.&C TARTUFO                              "
" 1193","T.&C TARTUFO (SIG. GALLI)                 "
" 1183","TABACCHERIA LANZI GABRIELE                "
"  185","TADDEO ELISA                              "
" 1265","TADDEO STEFANIA 333 4417900               "
"  224","TADDIA FRANCO CORDA                       "
" 1757","TADDIA NICOLA RETE/CORDA/SACCHI VUOTO     "
"  511","TAMBURINI VELMO                           "
"  484","TAPPARELLO ROSA - MOLINELLA               "
"  626","TAROZZI - OFFICINA SIG. ROVINETTI         "
"  620","TARTARINI (S.A.I.) VILLANOVA              "
"  582","TARTARINI S.A.I. ASSICURAZIONI            "
"  462","TARTARINI SAI ASSICURAZIONE FAX           "
"   65","TARTARINI MARIO (bestiame)                "
" 1008","TASSELLI FRIG. ORLANDINI 0338 8372959     "
" 1730","TATTINI                          IMPASTO  "
" 1741","TAV.RIPA CA' NOVA                         "
" 1776","TAV.RIPA CA' NOVA (NUOVA GESTIONE)        "
" 1687","TAV.RIPA CA_NOVA                          "
"  630","TECNOCART                                 "
" 1463","TECNOLINE SAS                             "
" 1462","TECNOLINE SAS (manutenzione carrelli el.  "
"  638","TEDESCHI AMEDEO                           "
" 1557","TELE OFFICE RUBBINI PAOLO                 "
"   92","TELECOMANDI COPIE ARDUINI ELETTRONICA     "
" 1075","TENNIS GRANAROLO                          "
" 1367","TENNIS TEBALDI FRANCO                     "
"  878","TERESA - CATERFIN EX RAPPR. SEGATA        "
" 1651","TEST POINT Sig Anna                       "
" 1652","TEST POINT Sig Fabrizio                   "
" 1278","TESTA Ing. (sicurezza 626)                "
" 1853","TESTONI                                   "
"  634","TESTONI GIORGIO                           "
" 1807","TESTONI (SARTONI)                         "
" 1031","TH&S (Valerio rip.stampanti)              "
" 1659","TIM/TELECOM ag.BARTON -S.LAZZARO          "
" 1789","TINTI (FESTA UVA CASTENASO)               "
"  552","TODESCHINI FERRUCCIO                      "
"   95","TODESCHINI PAOLO                          "
" 1871","TOMASO LAGHETTI S.DONATO                  "
" 1729","TOMBA                            IMPASTO  "
"  387","TONELLI AGOSTINO                          "
"  706","TONELLI ADOLFO                            "
"  940","TONELLI ROBERTA                           "
"  183","TONELLI SANDRA                            "
" 1083","TONINI GIANNI negozio 051 761459          "
" 1833","TOSCHI                                    "
" 1731","TOSELLI                          IMPASTO  "
"  101","TOSI PORCHETTE                            "
"  257","TOSSANI CRISTINA                          "
"  627","TOVOLI                                    "
" 1732","TRACCHI                          IMPASTO  "
" 1819","TRAFFI                                    "
"  170","TRANSCOOP (ALFREDO)                       "
" 1809","TRATT. SIRO                               "
"  574","TRATTORIA LA BUCA DI ZIBELLO              "
"  639","TRATTORIA LA MATTA (SOC. OSTI)            "
" 1251","TRATTORIA SAN SISTO                       "
"  891","TRATTORIA TOMBA GIORGIO                   "
"  429","TRATTORIA ZULA                            "
" 1255","TRATTORIA VILMA BORGATELLA                "
" 1606","TRENTA MICHELE m.trenta@ausl.bologna.it   "
" 1489","TRENTINI ALFIO -PRO-LOCO ARGELATO         "
" 1112","TRERE' MAURO 3DM 348 5266234              "
"  897","TREVISAN CARLO MARIA                      "
" 1650","TREVISAN ROMEO ALLEVATORE                 "
"  636","TRIPPERIA MERIGHI                         "
" 1040","TROMBETTI BEATRICE                        "
" 1380","TROMBETTI BENEDETTA                       "
"  914","TROMBETTI CRISTINA                        "
" 1052","TROMBETTI EDOARDO                         "
"  321","TROMBETTI ENRICO                          "
" 1080","TROMBETTI FRANCA cell 3472900446          "
"  968","TROMBETTI FRANCO                          "
" 1025","TROMBETTI GIOVANNI                        "
"  540","TROMBETTI GIULIA                          "
"  135","TROMBETTI GIUSEPPINA                      "
"   31","TROMBETTI MARCO                           "
"  222","TROMBETTI NICOLO'                         "
" 1277","TROMBETTI ROBERTA STUDIO CANTELLI         "
" 1647","TROMBETTI VANES                           "
" 1733","TUGNOLI                          IMPASTO  "
"  643","TUGNOLI EZIO                              "
"  573","TUGNOLI F.LLI FALEGNAMERIA                "
"  793","TUGNOLI GRAZIANO                          "
"  641","TUGNOLI-CUMANI                            "
" 1290","TURCHETTO (cugino VALERIANI 333 5978986)  "
"  125","TURCHETTO ing.ALESSANDRO                  "
" 1327","TURCHI ANDREA                             "
"  657","U.S.L. 26                                 "
"  656","U.S.L. 28 SER. VETERINARIO                "
" 1190","U.S.L. BO-NORD                            "
"  384","U.S.L. BO-NORD (Serv.Veter.SIG.RA CATIA)  "
" 1160","U.S.L. BO-NORD IGIENE PUBBLICA            "
"  658","U.S.L. BO-NORD MEDICINA DEL LAVORO        "
" 1223","U.S.L. BO-NORD VET. Dott. MAZZA           "
"  486","U.S.L. BO-NORD VET. dot.LANZARINI NOCERA  "
"  920","U.S.L. BO-NORD VETERINARIO                "
" 1035","U.S.L. BO-SUD S.LAZZARO SER.VETERINARIO   "
"  655","U.S.L. GRANAROLO                          "
"  649","UFFICIO D'IGIENE BOLOGNA                  "
"  651","UFFICIO DEL LAVORO GRANAROLO              "
"  650","UFFICIO DEL LAVORO MINERBIO               "
"  646","UFFICIO IMP. DIRETTE                      "
" 1346","UFFICIO IMP. DIRETTE VIA A.DA FORMIGINE   "
"  648","UFFICIO POSTALE QUARTO INF.               "
"  973","UFFICIO SCUOLA granarolo sig. GIUSEPPE    "
" 1525","UNICOM CC                                 "
" 1266","UNIGRANA                                  "
"  531","UNIPEG ANGELA RESP. QUALITA'              "
" 1466","UNIPEG CRISTIAN PAGNONI                   "
" 1498","UNIPEG centralino                         "
"  115","UNIPEG - Sig. Santi - resp.trasporti      "
"  840","UOVA AZ. AGRIC. ORLANDINI                 "
"  874","UOVA PASTORIZZATE RODA                    "
" 1472","V.T.L. di VETRICINI (OSSA/GRASSO)         "
" 1627","V.T.L. VETRICINI (SIG.FRANCO)             "
" 1668","VALERIA EX DANDY                          "
" 1332","VALERIANI ing. VALERIO vedi TURCHETTO     "
" 1050","VALERIO GABRIELLI                         "
" 1365","VALLA TENDE                               "
" 1227","VALSAMOGGIA                               "
"  506","VANDELLI CLAUDIO DANIELA                  "
"  967","VASCO                                     "
" 1673","VECCHI CASTENASO                 IMPASTO  "
" 1085","VECCHI SIG. LUISA                         "
"  577","VENTURI AUTOSPURGHI& C. S.N.C.            "
"  665","VENTUROLI GIUSEPPINA                      "
"  678","VENTUROLI VALERIO                         "
" 1117","VENTUROLI VEGLIA                          "
"  873","VENTURUZZO ANDREA ELETTRAUTO              "
" 1169","VENTURUZZO F.LLI ELETTRAUTO               "
" 1589","VEPA GIUSEPPE                             "
" 1599","VEPA MACCHINE INTENERITRICE (GIUSEPPE)    "
" 1164","VERDICCHIO Agente BALDI                   "
"  667","VERDURI F.LLI                             "
"  671","VERDURI-PIAZZA AUTOTRASPORTI              "
" 1356","VERICELLI LUCA                            "
"  672","VERNIANA GOMME (BALLANDI)                 "
"  680","VERONESI (CONTACHILOMETRI)                "
" 1195","VERONESI SILVANO                          "
"  402","VESPIGNANI VANLUIGI                       "
"  662","VETRERIA NETTUNO                          "
"  414","VETRICINI (SIG. MIRCO)                    "
"  597","VETRICINI (SIG.FRANCO)                    "
" 1016","VETRICINI (V.T.L.)                        "
"  285","VETRICINI / V.T.L. UFFICIO                "
"  696","VETRUGNO                                  "
" 1870","VETTAFLEX VENEZIANE                       "
" 1735","VIBIO CARLO                      IMPASTO  "
" 1570","VICECONTE                                 "
"  927","VICENTINI CARNI                           "
"  929","VICENTINI CARNI RAPPR.                    "
" 1324","VIGILESSA BALDI DANIELA                   "
"  904","VIGILI GRANAROLO                          "
"  806","VIGNOLCARNI SEZIONAM.GIOVANELLI GIULIANO  "
"  205","VIGNOLI FRANCO                            "
"  679","VIGNUDELLI LORIS                          "
"   20","VIGNUDELLI LORIS 333 4844152              "
"  673","VILLA REGINA                              "
"  676","VILLANI AUTOSCUOLA                        "
" 1519","VINICIO                                   "
" 1734","VISCHI                           IMPASTO  "
"  668","VISCORA S.P.A.                            "
"  670","VISMARA (SIG. COSTA)                      "
" 1188","VISMARA GIOVANNI                          "
"  669","VITALI (ILPAC)                            "
" 1753","VITALI SALUMIFICIO PIETRA COLORA          "
" 1416","VOLSWAGEN (BIANCONCINI-CASTEL S.PIETRO    "
" 1143","v fttDR. SABRINA                          "
" 1447","WILLIAM - CUOCO FESTA ACQUA CAMST         "
"  410","WILMA                                     "
"  438","YOMO (ARGELATO/FUNO)                      "
" 1386","Z.P. ELETTROMECCANICA                     "
" 1313","ZAMBELLINI ARTINI VIA ZAGO NOTAIO         "
"  690","ZAMBON                                    "
" 1737","ZAMBON                           IMPASTO  "
"  685","ZAMBONI                                   "
" 1295","ZAMBONI TONINO AZ. AGRICOLA               "
"  683","ZANARINI CARBURANTI                       "
"  191","ZANASI                                    "
" 1552","ZANASI STEFANO FORMAGGI                   "
" 1455","ZANETTI GAETANO                           "
" 1299","ZANZI G.PIERO                             "
"  389","ZERBINI FRANCO                            "
" 1378","ZICCHITELLA GASPARE                       "
"  687","ZINCATURIFICIO BOLOGNESE                  "
"  599","ZINI CLAUDIO                              "
"  681","ZIOSI                                     "
"   51","ZOBBI FESTA PDS MINERBIO                  "
"  747","ZOBBI LUCIANO (casa Minerbio 877464)      "
" 1267","ZORZETTIG (Annalisa)                      "
"  689","ZUEGG                                     "
"  890","ZULA                                      "
" 1736","ZURLA                            IMPASTO  "
